,LOCATION,INDICATOR,SUBJECT,TIME,Value
2371,AUS,ALCOHOL,TOT,1960,9.3
2372,AUS,ALCOHOL,TOT,1961,9.4
2373,AUS,ALCOHOL,TOT,1962,9.5
2374,AUS,ALCOHOL,TOT,1963,9.8
2375,AUS,ALCOHOL,TOT,1964,10.1
2376,AUS,ALCOHOL,TOT,1965,10.0
2377,AUS,ALCOHOL,TOT,1966,10.3
2378,AUS,ALCOHOL,TOT,1967,10.8
2379,AUS,ALCOHOL,TOT,1968,11.1
2380,AUS,ALCOHOL,TOT,1969,11.6
2381,AUS,ALCOHOL,TOT,1970,11.6
2382,AUS,ALCOHOL,TOT,1971,11.6
2383,AUS,ALCOHOL,TOT,1972,12.2
2384,AUS,ALCOHOL,TOT,1973,12.9
2385,AUS,ALCOHOL,TOT,1974,13.1
2386,AUS,ALCOHOL,TOT,1975,12.9
2387,AUS,ALCOHOL,TOT,1976,13.1
2388,AUS,ALCOHOL,TOT,1977,13.0
2389,AUS,ALCOHOL,TOT,1978,12.7
2390,AUS,ALCOHOL,TOT,1979,12.7
2391,AUS,ALCOHOL,TOT,1980,12.7
2392,AUS,ALCOHOL,TOT,1981,12.8
2393,AUS,ALCOHOL,TOT,1982,12.4
2394,AUS,ALCOHOL,TOT,1983,12.2
2395,AUS,ALCOHOL,TOT,1984,11.7
2396,AUS,ALCOHOL,TOT,1985,11.8
2397,AUS,ALCOHOL,TOT,1986,11.3
2398,AUS,ALCOHOL,TOT,1987,11.4
2399,AUS,ALCOHOL,TOT,1988,11.3
2400,AUS,ALCOHOL,TOT,1989,11.0
2401,AUS,ALCOHOL,TOT,1990,10.6
2402,AUS,ALCOHOL,TOT,1991,10.1
2403,AUS,ALCOHOL,TOT,1992,9.9
2404,AUS,ALCOHOL,TOT,1993,10.2
2405,AUS,ALCOHOL,TOT,1994,10.0
2406,AUS,ALCOHOL,TOT,1995,9.8
2407,AUS,ALCOHOL,TOT,1996,10.0
2408,AUS,ALCOHOL,TOT,1997,10.2
2409,AUS,ALCOHOL,TOT,1998,10.0
2410,AUS,ALCOHOL,TOT,1999,10.0
2411,AUS,ALCOHOL,TOT,2000,10.2
2412,AUS,ALCOHOL,TOT,2001,10.0
2413,AUS,ALCOHOL,TOT,2002,10.4
2414,AUS,ALCOHOL,TOT,2003,10.3
2415,AUS,ALCOHOL,TOT,2004,10.5
2416,AUS,ALCOHOL,TOT,2005,10.5
2417,AUS,ALCOHOL,TOT,2006,10.8
2418,AUS,ALCOHOL,TOT,2007,10.8
2419,AUS,ALCOHOL,TOT,2008,10.6
2420,AUS,ALCOHOL,TOT,2009,10.5
2421,AUS,ALCOHOL,TOT,2010,10.3
2422,AUS,ALCOHOL,TOT,2011,10.0
2423,AUS,ALCOHOL,TOT,2012,9.9
2424,AUS,ALCOHOL,TOT,2013,9.8
2425,AUS,ALCOHOL,TOT,2014,9.5
2426,AUS,ALCOHOL,TOT,2015,9.7
2427,AUS,ALCOHOL,TOT,2016,9.4
2428,AUT,ALCOHOL,TOT,1960,9.4
2429,AUT,ALCOHOL,TOT,1961,10.0
2430,AUT,ALCOHOL,TOT,1962,10.0
2431,AUT,ALCOHOL,TOT,1963,10.8
2432,AUT,ALCOHOL,TOT,1964,11.3
2433,AUT,ALCOHOL,TOT,1965,11.9
2434,AUT,ALCOHOL,TOT,1966,13.8
2435,AUT,ALCOHOL,TOT,1967,13.5
2436,AUT,ALCOHOL,TOT,1968,14.2
2437,AUT,ALCOHOL,TOT,1969,14.0
2438,AUT,ALCOHOL,TOT,1970,14.2
2439,AUT,ALCOHOL,TOT,1971,14.7
2440,AUT,ALCOHOL,TOT,1972,15.4
2441,AUT,ALCOHOL,TOT,1973,15.6
2442,AUT,ALCOHOL,TOT,1974,15.5
2443,AUT,ALCOHOL,TOT,1975,15.0
2444,AUT,ALCOHOL,TOT,1976,15.1
2445,AUT,ALCOHOL,TOT,1977,15.2
2446,AUT,ALCOHOL,TOT,1978,14.4
2447,AUT,ALCOHOL,TOT,1979,14.5
2448,AUT,ALCOHOL,TOT,1980,14.5
2449,AUT,ALCOHOL,TOT,1981,14.3
2450,AUT,ALCOHOL,TOT,1982,14.4
2451,AUT,ALCOHOL,TOT,1983,14.9
2452,AUT,ALCOHOL,TOT,1984,14.7
2453,AUT,ALCOHOL,TOT,1985,14.1
2454,AUT,ALCOHOL,TOT,1986,14.5
2455,AUT,ALCOHOL,TOT,1987,14.4
2456,AUT,ALCOHOL,TOT,1988,14.5
2457,AUT,ALCOHOL,TOT,1989,14.8
2458,AUT,ALCOHOL,TOT,1990,14.9
2459,AUT,ALCOHOL,TOT,1991,14.9
2460,AUT,ALCOHOL,TOT,1992,14.5
2461,AUT,ALCOHOL,TOT,1993,14.4
2462,AUT,ALCOHOL,TOT,1994,13.3
2463,AUT,ALCOHOL,TOT,1995,14.2
2464,AUT,ALCOHOL,TOT,1996,14.2
2465,AUT,ALCOHOL,TOT,1997,13.6
2466,AUT,ALCOHOL,TOT,1998,13.5
2467,AUT,ALCOHOL,TOT,1999,13.4
2468,AUT,ALCOHOL,TOT,2000,13.7
2469,AUT,ALCOHOL,TOT,2001,12.8
2470,AUT,ALCOHOL,TOT,2002,12.5
2471,AUT,ALCOHOL,TOT,2003,12.7
2472,AUT,ALCOHOL,TOT,2004,12.5
2473,AUT,ALCOHOL,TOT,2005,12.6
2474,AUT,ALCOHOL,TOT,2006,12.9
2475,AUT,ALCOHOL,TOT,2007,12.9
2476,AUT,ALCOHOL,TOT,2008,12.4
2477,AUT,ALCOHOL,TOT,2009,12.1
2478,AUT,ALCOHOL,TOT,2010,12.5
2479,AUT,ALCOHOL,TOT,2011,12.2
2480,AUT,ALCOHOL,TOT,2012,12.4
2481,AUT,ALCOHOL,TOT,2013,12.0
2482,AUT,ALCOHOL,TOT,2014,12.4
2483,AUT,ALCOHOL,TOT,2015,11.6
2484,AUT,ALCOHOL,TOT,2016,11.8
2485,BEL,ALCOHOL,TOT,1963,9.9
2486,BEL,ALCOHOL,TOT,1964,10.5
2487,BEL,ALCOHOL,TOT,1965,10.8
2488,BEL,ALCOHOL,TOT,1966,10.3
2489,BEL,ALCOHOL,TOT,1967,10.7
2490,BEL,ALCOHOL,TOT,1968,11.2
2491,BEL,ALCOHOL,TOT,1969,11.5
2492,BEL,ALCOHOL,TOT,1970,12.4
2493,BEL,ALCOHOL,TOT,1971,12.6
2494,BEL,ALCOHOL,TOT,1972,13.0
2495,BEL,ALCOHOL,TOT,1973,13.8
2496,BEL,ALCOHOL,TOT,1974,13.4
2497,BEL,ALCOHOL,TOT,1975,13.5
2498,BEL,ALCOHOL,TOT,1976,13.6
2499,BEL,ALCOHOL,TOT,1977,13.5
2500,BEL,ALCOHOL,TOT,1978,13.4
2501,BEL,ALCOHOL,TOT,1979,13.6
2502,BEL,ALCOHOL,TOT,1980,14.0
2503,BEL,ALCOHOL,TOT,1981,13.3
2504,BEL,ALCOHOL,TOT,1982,13.7
2505,BEL,ALCOHOL,TOT,1983,13.6
2506,BEL,ALCOHOL,TOT,1984,13.3
2507,BEL,ALCOHOL,TOT,1985,13.1
2508,BEL,ALCOHOL,TOT,1986,12.7
2509,BEL,ALCOHOL,TOT,1987,13.2
2510,BEL,ALCOHOL,TOT,1988,12.5
2511,BEL,ALCOHOL,TOT,1989,11.6
2512,BEL,ALCOHOL,TOT,1990,12.2
2513,BEL,ALCOHOL,TOT,1991,11.4
2514,BEL,ALCOHOL,TOT,1992,11.7
2515,BEL,ALCOHOL,TOT,1993,11.7
2516,BEL,ALCOHOL,TOT,1994,11.1
2517,BEL,ALCOHOL,TOT,1995,11.0
2518,BEL,ALCOHOL,TOT,1996,10.9
2519,BEL,ALCOHOL,TOT,1997,10.9
2520,BEL,ALCOHOL,TOT,1998,9.9
2521,BEL,ALCOHOL,TOT,1999,10.1
2522,BEL,ALCOHOL,TOT,2000,11.3
2523,BEL,ALCOHOL,TOT,2001,11.1
2524,BEL,ALCOHOL,TOT,2002,11.3
2525,BEL,ALCOHOL,TOT,2003,11.3
2526,BEL,ALCOHOL,TOT,2004,12.1
2527,BEL,ALCOHOL,TOT,2005,12.2
2528,BEL,ALCOHOL,TOT,2006,10.9
2529,BEL,ALCOHOL,TOT,2007,10.3
2530,BEL,ALCOHOL,TOT,2008,10.5
2531,BEL,ALCOHOL,TOT,2009,10.1
2532,BEL,ALCOHOL,TOT,2010,10.3
2533,BEL,ALCOHOL,TOT,2011,10.1
2534,BEL,ALCOHOL,TOT,2012,10.1
2535,BEL,ALCOHOL,TOT,2013,10.3
2536,BEL,ALCOHOL,TOT,2014,10.6
2537,BEL,ALCOHOL,TOT,2015,10.4
2538,CAN,ALCOHOL,TOT,1960,7.0
2539,CAN,ALCOHOL,TOT,1961,7.1
2540,CAN,ALCOHOL,TOT,1962,7.3
2541,CAN,ALCOHOL,TOT,1963,7.5
2542,CAN,ALCOHOL,TOT,1964,7.6
2543,CAN,ALCOHOL,TOT,1965,7.8
2544,CAN,ALCOHOL,TOT,1966,8.1
2545,CAN,ALCOHOL,TOT,1967,8.3
2546,CAN,ALCOHOL,TOT,1968,8.3
2547,CAN,ALCOHOL,TOT,1969,8.5
2548,CAN,ALCOHOL,TOT,1970,8.8
2549,CAN,ALCOHOL,TOT,1971,9.4
2550,CAN,ALCOHOL,TOT,1972,9.9
2551,CAN,ALCOHOL,TOT,1973,10.4
2552,CAN,ALCOHOL,TOT,1974,10.8
2553,CAN,ALCOHOL,TOT,1975,10.9
2554,CAN,ALCOHOL,TOT,1976,10.9
2555,CAN,ALCOHOL,TOT,1977,10.9
2556,CAN,ALCOHOL,TOT,1978,10.9
2557,CAN,ALCOHOL,TOT,1979,10.9
2558,CAN,ALCOHOL,TOT,1980,10.7
2559,CAN,ALCOHOL,TOT,1981,10.8
2560,CAN,ALCOHOL,TOT,1982,10.5
2561,CAN,ALCOHOL,TOT,1983,10.2
2562,CAN,ALCOHOL,TOT,1984,9.9
2563,CAN,ALCOHOL,TOT,1985,9.8
2564,CAN,ALCOHOL,TOT,1986,9.6
2565,CAN,ALCOHOL,TOT,1987,9.6
2566,CAN,ALCOHOL,TOT,1988,9.4
2567,CAN,ALCOHOL,TOT,1989,8.8
2568,CAN,ALCOHOL,TOT,1990,8.5
2569,CAN,ALCOHOL,TOT,1991,8.2
2570,CAN,ALCOHOL,TOT,1992,7.8
2571,CAN,ALCOHOL,TOT,1993,7.5
2572,CAN,ALCOHOL,TOT,1994,7.4
2573,CAN,ALCOHOL,TOT,1995,7.4
2574,CAN,ALCOHOL,TOT,1996,7.4
2575,CAN,ALCOHOL,TOT,1997,7.2
2576,CAN,ALCOHOL,TOT,1998,7.3
2577,CAN,ALCOHOL,TOT,1999,7.5
2578,CAN,ALCOHOL,TOT,2000,7.6
2579,CAN,ALCOHOL,TOT,2001,7.6
2580,CAN,ALCOHOL,TOT,2002,7.7
2581,CAN,ALCOHOL,TOT,2003,7.7
2582,CAN,ALCOHOL,TOT,2004,7.8
2583,CAN,ALCOHOL,TOT,2005,8.0
2584,CAN,ALCOHOL,TOT,2006,8.2
2585,CAN,ALCOHOL,TOT,2007,8.4
2586,CAN,ALCOHOL,TOT,2008,8.4
2587,CAN,ALCOHOL,TOT,2009,8.4
2588,CAN,ALCOHOL,TOT,2010,8.4
2589,CAN,ALCOHOL,TOT,2011,8.2
2590,CAN,ALCOHOL,TOT,2012,8.3
2591,CAN,ALCOHOL,TOT,2013,8.2
2592,CAN,ALCOHOL,TOT,2014,8.0
2593,CAN,ALCOHOL,TOT,2015,8.0
2594,CAN,ALCOHOL,TOT,2016,8.1
2595,CAN,ALCOHOL,TOT,2017,8.2
2596,CZE,ALCOHOL,TOT,1980,11.7
2597,CZE,ALCOHOL,TOT,1981,12.3
2598,CZE,ALCOHOL,TOT,1982,11.9
2599,CZE,ALCOHOL,TOT,1983,12.2
2600,CZE,ALCOHOL,TOT,1984,12.0
2601,CZE,ALCOHOL,TOT,1985,11.7
2602,CZE,ALCOHOL,TOT,1986,11.3
2603,CZE,ALCOHOL,TOT,1987,10.4
2604,CZE,ALCOHOL,TOT,1988,10.5
2605,CZE,ALCOHOL,TOT,1989,10.5
2606,CZE,ALCOHOL,TOT,1990,11.3
2607,CZE,ALCOHOL,TOT,1991,11.5
2608,CZE,ALCOHOL,TOT,1992,11.8
2609,CZE,ALCOHOL,TOT,1993,11.5
2610,CZE,ALCOHOL,TOT,1994,11.6
2611,CZE,ALCOHOL,TOT,1995,11.5
2612,CZE,ALCOHOL,TOT,1996,11.6
2613,CZE,ALCOHOL,TOT,1997,11.9
2614,CZE,ALCOHOL,TOT,1998,11.8
2615,CZE,ALCOHOL,TOT,1999,11.9
2616,CZE,ALCOHOL,TOT,2000,11.8
2617,CZE,ALCOHOL,TOT,2001,11.8
2618,CZE,ALCOHOL,TOT,2002,11.9
2619,CZE,ALCOHOL,TOT,2003,12.1
2620,CZE,ALCOHOL,TOT,2004,11.5
2621,CZE,ALCOHOL,TOT,2005,12.0
2622,CZE,ALCOHOL,TOT,2006,11.9
2623,CZE,ALCOHOL,TOT,2007,12.1
2624,CZE,ALCOHOL,TOT,2008,12.1
2625,CZE,ALCOHOL,TOT,2009,12.1
2626,CZE,ALCOHOL,TOT,2010,11.4
2627,CZE,ALCOHOL,TOT,2011,11.5
2628,CZE,ALCOHOL,TOT,2012,11.6
2629,CZE,ALCOHOL,TOT,2013,11.5
2630,CZE,ALCOHOL,TOT,2014,11.9
2631,CZE,ALCOHOL,TOT,2015,11.5
2632,CZE,ALCOHOL,TOT,2016,11.7
2633,CZE,ALCOHOL,TOT,2017,11.6
2634,DNK,ALCOHOL,TOT,1960,5.5
2635,DNK,ALCOHOL,TOT,1961,5.8
2636,DNK,ALCOHOL,TOT,1962,5.7
2637,DNK,ALCOHOL,TOT,1963,5.9
2638,DNK,ALCOHOL,TOT,1964,6.6
2639,DNK,ALCOHOL,TOT,1965,6.5
2640,DNK,ALCOHOL,TOT,1966,6.9
2641,DNK,ALCOHOL,TOT,1967,7.2
2642,DNK,ALCOHOL,TOT,1968,7.3
2643,DNK,ALCOHOL,TOT,1969,7.9
2644,DNK,ALCOHOL,TOT,1970,8.6
2645,DNK,ALCOHOL,TOT,1971,9.3
2646,DNK,ALCOHOL,TOT,1972,10.1
2647,DNK,ALCOHOL,TOT,1973,10.9
2648,DNK,ALCOHOL,TOT,1974,10.7
2649,DNK,ALCOHOL,TOT,1975,11.5
2650,DNK,ALCOHOL,TOT,1976,11.9
2651,DNK,ALCOHOL,TOT,1977,11.5
2652,DNK,ALCOHOL,TOT,1978,11.0
2653,DNK,ALCOHOL,TOT,1979,11.5
2654,DNK,ALCOHOL,TOT,1980,11.7
2655,DNK,ALCOHOL,TOT,1981,12.0
2656,DNK,ALCOHOL,TOT,1982,12.3
2657,DNK,ALCOHOL,TOT,1983,12.8
2658,DNK,ALCOHOL,TOT,1984,12.6
2659,DNK,ALCOHOL,TOT,1985,12.3
2660,DNK,ALCOHOL,TOT,1986,12.1
2661,DNK,ALCOHOL,TOT,1987,11.7
2662,DNK,ALCOHOL,TOT,1988,11.8
2663,DNK,ALCOHOL,TOT,1989,11.6
2664,DNK,ALCOHOL,TOT,1990,11.7
2665,DNK,ALCOHOL,TOT,1991,11.6
2666,DNK,ALCOHOL,TOT,1992,11.9
2667,DNK,ALCOHOL,TOT,1993,11.7
2668,DNK,ALCOHOL,TOT,1994,12.0
2669,DNK,ALCOHOL,TOT,1995,12.1
2670,DNK,ALCOHOL,TOT,1996,12.2
2671,DNK,ALCOHOL,TOT,1997,12.2
2672,DNK,ALCOHOL,TOT,1998,11.6
2673,DNK,ALCOHOL,TOT,1999,11.6
2674,DNK,ALCOHOL,TOT,2000,13.1
2675,DNK,ALCOHOL,TOT,2001,13.1
2676,DNK,ALCOHOL,TOT,2002,13.1
2677,DNK,ALCOHOL,TOT,2003,13.0
2678,DNK,ALCOHOL,TOT,2004,12.8
2679,DNK,ALCOHOL,TOT,2005,12.7
2680,DNK,ALCOHOL,TOT,2006,12.2
2681,DNK,ALCOHOL,TOT,2007,12.1
2682,DNK,ALCOHOL,TOT,2008,10.9
2683,DNK,ALCOHOL,TOT,2009,10.1
2684,DNK,ALCOHOL,TOT,2010,10.3
2685,DNK,ALCOHOL,TOT,2011,10.5
2686,DNK,ALCOHOL,TOT,2012,9.3
2687,DNK,ALCOHOL,TOT,2013,9.4
2688,DNK,ALCOHOL,TOT,2014,9.5
2689,DNK,ALCOHOL,TOT,2015,9.3
2690,DNK,ALCOHOL,TOT,2016,9.4
2691,DNK,ALCOHOL,TOT,2017,9.1
2692,FIN,ALCOHOL,TOT,1960,2.7
2693,FIN,ALCOHOL,TOT,1961,2.9
2694,FIN,ALCOHOL,TOT,1962,3.0
2695,FIN,ALCOHOL,TOT,1963,3.1
2696,FIN,ALCOHOL,TOT,1964,3.1
2697,FIN,ALCOHOL,TOT,1965,3.3
2698,FIN,ALCOHOL,TOT,1966,3.5
2699,FIN,ALCOHOL,TOT,1967,3.6
2700,FIN,ALCOHOL,TOT,1968,3.9
2701,FIN,ALCOHOL,TOT,1969,5.7
2702,FIN,ALCOHOL,TOT,1970,5.8
2703,FIN,ALCOHOL,TOT,1971,6.4
2704,FIN,ALCOHOL,TOT,1972,6.8
2705,FIN,ALCOHOL,TOT,1973,7.4
2706,FIN,ALCOHOL,TOT,1974,8.4
2707,FIN,ALCOHOL,TOT,1975,8.0
2708,FIN,ALCOHOL,TOT,1976,8.1
2709,FIN,ALCOHOL,TOT,1977,8.2
2710,FIN,ALCOHOL,TOT,1978,7.9
2711,FIN,ALCOHOL,TOT,1979,7.8
2712,FIN,ALCOHOL,TOT,1980,7.9
2713,FIN,ALCOHOL,TOT,1981,8.0
2714,FIN,ALCOHOL,TOT,1982,7.9
2715,FIN,ALCOHOL,TOT,1983,7.9
2716,FIN,ALCOHOL,TOT,1984,8.1
2717,FIN,ALCOHOL,TOT,1985,8.0
2718,FIN,ALCOHOL,TOT,1986,8.5
2719,FIN,ALCOHOL,TOT,1987,8.8
2720,FIN,ALCOHOL,TOT,1988,9.0
2721,FIN,ALCOHOL,TOT,1989,9.4
2722,FIN,ALCOHOL,TOT,1990,9.5
2723,FIN,ALCOHOL,TOT,1991,9.2
2724,FIN,ALCOHOL,TOT,1992,8.9
2725,FIN,ALCOHOL,TOT,1993,8.4
2726,FIN,ALCOHOL,TOT,1994,8.2
2727,FIN,ALCOHOL,TOT,1995,8.3
2728,FIN,ALCOHOL,TOT,1996,8.2
2729,FIN,ALCOHOL,TOT,1997,8.6
2730,FIN,ALCOHOL,TOT,1998,8.6
2731,FIN,ALCOHOL,TOT,1999,8.6
2732,FIN,ALCOHOL,TOT,2000,8.6
2733,FIN,ALCOHOL,TOT,2001,9.0
2734,FIN,ALCOHOL,TOT,2002,9.2
2735,FIN,ALCOHOL,TOT,2003,9.3
2736,FIN,ALCOHOL,TOT,2004,9.9
2737,FIN,ALCOHOL,TOT,2005,10.0
2738,FIN,ALCOHOL,TOT,2006,10.1
2739,FIN,ALCOHOL,TOT,2007,10.5
2740,FIN,ALCOHOL,TOT,2008,10.3
2741,FIN,ALCOHOL,TOT,2009,10.0
2742,FIN,ALCOHOL,TOT,2010,9.7
2743,FIN,ALCOHOL,TOT,2011,9.8
2744,FIN,ALCOHOL,TOT,2012,9.3
2745,FIN,ALCOHOL,TOT,2013,9.1
2746,FIN,ALCOHOL,TOT,2014,8.8
2747,FIN,ALCOHOL,TOT,2015,8.5
2748,FIN,ALCOHOL,TOT,2016,8.4
2749,FIN,ALCOHOL,TOT,2017,8.4
2750,FRA,ALCOHOL,TOT,1970,23.2
2751,FRA,ALCOHOL,TOT,1971,22.9
2752,FRA,ALCOHOL,TOT,1972,22.6
2753,FRA,ALCOHOL,TOT,1973,22.8
2754,FRA,ALCOHOL,TOT,1974,22.5
2755,FRA,ALCOHOL,TOT,1975,22.5
2756,FRA,ALCOHOL,TOT,1976,22.2
2757,FRA,ALCOHOL,TOT,1977,22.1
2758,FRA,ALCOHOL,TOT,1978,21.1
2759,FRA,ALCOHOL,TOT,1979,20.6
2760,FRA,ALCOHOL,TOT,1980,20.1
2761,FRA,ALCOHOL,TOT,1981,19.5
2762,FRA,ALCOHOL,TOT,1982,19.4
2763,FRA,ALCOHOL,TOT,1983,18.8
2764,FRA,ALCOHOL,TOT,1984,17.9
2765,FRA,ALCOHOL,TOT,1985,17.6
2766,FRA,ALCOHOL,TOT,1986,17.1
2767,FRA,ALCOHOL,TOT,1987,16.8
2768,FRA,ALCOHOL,TOT,1988,16.8
2769,FRA,ALCOHOL,TOT,1989,17.0
2770,FRA,ALCOHOL,TOT,1990,15.4
2771,FRA,ALCOHOL,TOT,1991,15.4
2772,FRA,ALCOHOL,TOT,1992,15.4
2773,FRA,ALCOHOL,TOT,1993,14.7
2774,FRA,ALCOHOL,TOT,1994,14.6
2775,FRA,ALCOHOL,TOT,1995,14.5
2776,FRA,ALCOHOL,TOT,1996,14.5
2777,FRA,ALCOHOL,TOT,1997,14.3
2778,FRA,ALCOHOL,TOT,1998,14.5
2779,FRA,ALCOHOL,TOT,1999,14.4
2780,FRA,ALCOHOL,TOT,2000,13.9
2781,FRA,ALCOHOL,TOT,2001,14.1
2782,FRA,ALCOHOL,TOT,2002,13.9
2783,FRA,ALCOHOL,TOT,2003,13.4
2784,FRA,ALCOHOL,TOT,2004,13.1
2785,FRA,ALCOHOL,TOT,2005,12.9
2786,FRA,ALCOHOL,TOT,2006,13.1
2787,FRA,ALCOHOL,TOT,2007,12.9
2788,FRA,ALCOHOL,TOT,2008,12.5
2789,FRA,ALCOHOL,TOT,2009,12.6
2790,FRA,ALCOHOL,TOT,2010,12.3
2791,FRA,ALCOHOL,TOT,2011,12.4
2792,FRA,ALCOHOL,TOT,2012,12.2
2793,FRA,ALCOHOL,TOT,2013,11.6
2794,FRA,ALCOHOL,TOT,2014,12.0
2795,FRA,ALCOHOL,TOT,2015,11.9
2796,FRA,ALCOHOL,TOT,2016,11.7
2797,FRA,ALCOHOL,TOT,2017,11.7
2798,DEU,ALCOHOL,TOT,1961,11.0
2799,DEU,ALCOHOL,TOT,1962,12.1
2800,DEU,ALCOHOL,TOT,1963,12.9
2801,DEU,ALCOHOL,TOT,1964,13.7
2802,DEU,ALCOHOL,TOT,1965,14.0
2803,DEU,ALCOHOL,TOT,1966,13.6
2804,DEU,ALCOHOL,TOT,1967,13.5
2805,DEU,ALCOHOL,TOT,1968,14.0
2806,DEU,ALCOHOL,TOT,1969,15.0
2807,DEU,ALCOHOL,TOT,1970,15.5
2808,DEU,ALCOHOL,TOT,1971,16.5
2809,DEU,ALCOHOL,TOT,1972,16.3
2810,DEU,ALCOHOL,TOT,1973,16.7
2811,DEU,ALCOHOL,TOT,1974,15.9
2812,DEU,ALCOHOL,TOT,1975,16.8
2813,DEU,ALCOHOL,TOT,1976,17.2
2814,DEU,ALCOHOL,TOT,1977,16.4
2815,DEU,ALCOHOL,TOT,1978,16.3
2816,DEU,ALCOHOL,TOT,1979,16.7
2817,DEU,ALCOHOL,TOT,1980,16.5
2818,DEU,ALCOHOL,TOT,1981,16.0
2819,DEU,ALCOHOL,TOT,1982,15.7
2820,DEU,ALCOHOL,TOT,1983,15.8
2821,DEU,ALCOHOL,TOT,1984,15.1
2822,DEU,ALCOHOL,TOT,1985,15.1
2823,DEU,ALCOHOL,TOT,1986,14.7
2824,DEU,ALCOHOL,TOT,1987,14.8
2825,DEU,ALCOHOL,TOT,1988,14.6
2826,DEU,ALCOHOL,TOT,1989,14.6
2827,DEU,ALCOHOL,TOT,1990,14.9
2828,DEU,ALCOHOL,TOT,1991,13.9
2829,DEU,ALCOHOL,TOT,1992,13.8
2830,DEU,ALCOHOL,TOT,1993,13.5
2831,DEU,ALCOHOL,TOT,1994,13.4
2832,DEU,ALCOHOL,TOT,1995,13.4
2833,DEU,ALCOHOL,TOT,1996,13.1
2834,DEU,ALCOHOL,TOT,1997,13.0
2835,DEU,ALCOHOL,TOT,1998,12.7
2836,DEU,ALCOHOL,TOT,1999,12.8
2837,DEU,ALCOHOL,TOT,2000,12.9
2838,DEU,ALCOHOL,TOT,2001,12.5
2839,DEU,ALCOHOL,TOT,2002,12.3
2840,DEU,ALCOHOL,TOT,2003,11.9
2841,DEU,ALCOHOL,TOT,2004,11.8
2842,DEU,ALCOHOL,TOT,2005,12.0
2843,DEU,ALCOHOL,TOT,2006,12.1
2844,DEU,ALCOHOL,TOT,2007,11.9
2845,DEU,ALCOHOL,TOT,2008,11.8
2846,DEU,ALCOHOL,TOT,2009,11.6
2847,DEU,ALCOHOL,TOT,2010,11.4
2848,DEU,ALCOHOL,TOT,2011,11.9
2849,DEU,ALCOHOL,TOT,2012,11.8
2850,DEU,ALCOHOL,TOT,2013,11.7
2851,DEU,ALCOHOL,TOT,2014,11.6
2852,DEU,ALCOHOL,TOT,2015,12.0
2853,DEU,ALCOHOL,TOT,2016,10.9
2854,GRC,ALCOHOL,TOT,1963,9.7
2855,GRC,ALCOHOL,TOT,1964,9.8
2856,GRC,ALCOHOL,TOT,1965,10.0
2857,GRC,ALCOHOL,TOT,1966,10.1
2858,GRC,ALCOHOL,TOT,1967,10.1
2859,GRC,ALCOHOL,TOT,1968,10.2
2860,GRC,ALCOHOL,TOT,1969,10.2
2861,GRC,ALCOHOL,TOT,1970,10.3
2862,GRC,ALCOHOL,TOT,1971,10.4
2863,GRC,ALCOHOL,TOT,1972,10.4
2864,GRC,ALCOHOL,TOT,1973,10.7
2865,GRC,ALCOHOL,TOT,1974,10.9
2866,GRC,ALCOHOL,TOT,1975,10.9
2867,GRC,ALCOHOL,TOT,1976,11.0
2868,GRC,ALCOHOL,TOT,1977,10.9
2869,GRC,ALCOHOL,TOT,1978,11.4
2870,GRC,ALCOHOL,TOT,1979,11.6
2871,GRC,ALCOHOL,TOT,1980,13.2
2872,GRC,ALCOHOL,TOT,1981,12.0
2873,GRC,ALCOHOL,TOT,1982,11.0
2874,GRC,ALCOHOL,TOT,1983,11.8
2875,GRC,ALCOHOL,TOT,1984,11.6
2876,GRC,ALCOHOL,TOT,1985,10.9
2877,GRC,ALCOHOL,TOT,1986,8.9
2878,GRC,ALCOHOL,TOT,1987,9.8
2879,GRC,ALCOHOL,TOT,1988,10.1
2880,GRC,ALCOHOL,TOT,1989,10.2
2881,GRC,ALCOHOL,TOT,1990,10.3
2882,GRC,ALCOHOL,TOT,1991,10.2
2883,GRC,ALCOHOL,TOT,1992,10.0
2884,GRC,ALCOHOL,TOT,1993,10.7
2885,GRC,ALCOHOL,TOT,1994,10.4
2886,GRC,ALCOHOL,TOT,1995,10.1
2887,GRC,ALCOHOL,TOT,1996,9.7
2888,GRC,ALCOHOL,TOT,1997,9.5
2889,GRC,ALCOHOL,TOT,1998,9.0
2890,GRC,ALCOHOL,TOT,1999,9.5
2891,GRC,ALCOHOL,TOT,2000,9.2
2892,GRC,ALCOHOL,TOT,2001,9.3
2893,GRC,ALCOHOL,TOT,2002,8.7
2894,GRC,ALCOHOL,TOT,2003,9.5
2895,GRC,ALCOHOL,TOT,2004,9.6
2896,GRC,ALCOHOL,TOT,2005,10.0
2897,GRC,ALCOHOL,TOT,2006,9.5
2898,GRC,ALCOHOL,TOT,2007,9.7
2899,GRC,ALCOHOL,TOT,2008,9.5
2900,GRC,ALCOHOL,TOT,2009,9.1
2901,GRC,ALCOHOL,TOT,2010,9.0
2902,GRC,ALCOHOL,TOT,2011,8.0
2903,GRC,ALCOHOL,TOT,2012,7.6
2904,GRC,ALCOHOL,TOT,2013,7.5
2905,GRC,ALCOHOL,TOT,2014,7.0
2906,GRC,ALCOHOL,TOT,2015,6.6
2907,GRC,ALCOHOL,TOT,2016,6.5
2908,HUN,ALCOHOL,TOT,1960,8.2
2909,HUN,ALCOHOL,TOT,1961,8.1
2910,HUN,ALCOHOL,TOT,1962,8.2
2911,HUN,ALCOHOL,TOT,1963,8.6
2912,HUN,ALCOHOL,TOT,1964,9.6
2913,HUN,ALCOHOL,TOT,1965,8.9
2914,HUN,ALCOHOL,TOT,1966,8.9
2915,HUN,ALCOHOL,TOT,1967,9.7
2916,HUN,ALCOHOL,TOT,1968,9.9
2917,HUN,ALCOHOL,TOT,1969,11.1
2918,HUN,ALCOHOL,TOT,1970,11.5
2919,HUN,ALCOHOL,TOT,1971,11.9
2920,HUN,ALCOHOL,TOT,1972,11.9
2921,HUN,ALCOHOL,TOT,1973,11.9
2922,HUN,ALCOHOL,TOT,1974,11.8
2923,HUN,ALCOHOL,TOT,1975,12.6
2924,HUN,ALCOHOL,TOT,1976,13.5
2925,HUN,ALCOHOL,TOT,1977,14.4
2926,HUN,ALCOHOL,TOT,1978,14.6
2927,HUN,ALCOHOL,TOT,1979,14.1
2928,HUN,ALCOHOL,TOT,1980,14.9
2929,HUN,ALCOHOL,TOT,1981,14.8
2930,HUN,ALCOHOL,TOT,1982,14.8
2931,HUN,ALCOHOL,TOT,1983,14.5
2932,HUN,ALCOHOL,TOT,1984,14.9
2933,HUN,ALCOHOL,TOT,1985,14.7
2934,HUN,ALCOHOL,TOT,1986,14.5
2935,HUN,ALCOHOL,TOT,1987,13.5
2936,HUN,ALCOHOL,TOT,1988,13.1
2937,HUN,ALCOHOL,TOT,1989,14.1
2938,HUN,ALCOHOL,TOT,1990,13.9
2939,HUN,ALCOHOL,TOT,1991,13.3
2940,HUN,ALCOHOL,TOT,1992,13.0
2941,HUN,ALCOHOL,TOT,1993,13.1
2942,HUN,ALCOHOL,TOT,1994,12.9
2943,HUN,ALCOHOL,TOT,1995,12.2
2944,HUN,ALCOHOL,TOT,1996,12.5
2945,HUN,ALCOHOL,TOT,1997,12.3
2946,HUN,ALCOHOL,TOT,1998,12.2
2947,HUN,ALCOHOL,TOT,1999,12.2
2948,HUN,ALCOHOL,TOT,2000,12.0
2949,HUN,ALCOHOL,TOT,2001,13.2
2950,HUN,ALCOHOL,TOT,2002,13.3
2951,HUN,ALCOHOL,TOT,2003,13.2
2952,HUN,ALCOHOL,TOT,2004,13.2
2953,HUN,ALCOHOL,TOT,2005,13.0
2954,HUN,ALCOHOL,TOT,2006,13.2
2955,HUN,ALCOHOL,TOT,2007,12.6
2956,HUN,ALCOHOL,TOT,2008,11.8
2957,HUN,ALCOHOL,TOT,2009,11.5
2958,HUN,ALCOHOL,TOT,2010,10.8
2959,HUN,ALCOHOL,TOT,2011,11.4
2960,HUN,ALCOHOL,TOT,2012,11.1
2961,HUN,ALCOHOL,TOT,2013,10.6
2962,HUN,ALCOHOL,TOT,2014,10.9
2963,HUN,ALCOHOL,TOT,2015,10.8
2964,HUN,ALCOHOL,TOT,2016,11.1
2965,ISL,ALCOHOL,TOT,1961,3.0
2966,ISL,ALCOHOL,TOT,1962,3.4
2967,ISL,ALCOHOL,TOT,1963,3.6
2968,ISL,ALCOHOL,TOT,1964,3.6
2969,ISL,ALCOHOL,TOT,1965,3.8
2970,ISL,ALCOHOL,TOT,1966,4.2
2971,ISL,ALCOHOL,TOT,1967,4.4
2972,ISL,ALCOHOL,TOT,1968,3.9
2973,ISL,ALCOHOL,TOT,1969,3.9
2974,ISL,ALCOHOL,TOT,1970,4.6
2975,ISL,ALCOHOL,TOT,1971,4.9
2976,ISL,ALCOHOL,TOT,1972,5.0
2977,ISL,ALCOHOL,TOT,1973,5.2
2978,ISL,ALCOHOL,TOT,1974,5.3
2979,ISL,ALCOHOL,TOT,1975,4.8
2980,ISL,ALCOHOL,TOT,1976,4.8
2981,ISL,ALCOHOL,TOT,1977,5.1
2982,ISL,ALCOHOL,TOT,1978,4.8
2983,ISL,ALCOHOL,TOT,1979,5.1
2984,ISL,ALCOHOL,TOT,1980,5.0
2985,ISL,ALCOHOL,TOT,1981,5.1
2986,ISL,ALCOHOL,TOT,1982,4.9
2987,ISL,ALCOHOL,TOT,1983,5.1
2988,ISL,ALCOHOL,TOT,1984,5.4
2989,ISL,ALCOHOL,TOT,1985,5.3
2990,ISL,ALCOHOL,TOT,1986,5.5
2991,ISL,ALCOHOL,TOT,1987,5.6
2992,ISL,ALCOHOL,TOT,1988,5.5
2993,ISL,ALCOHOL,TOT,1989,5.4
2994,ISL,ALCOHOL,TOT,1990,5.1
2995,ISL,ALCOHOL,TOT,1991,5.0
2996,ISL,ALCOHOL,TOT,1992,4.6
2997,ISL,ALCOHOL,TOT,1993,4.4
2998,ISL,ALCOHOL,TOT,1994,4.6
2999,ISL,ALCOHOL,TOT,1995,4.7
3000,ISL,ALCOHOL,TOT,1996,4.8
3001,ISL,ALCOHOL,TOT,1997,5.1
3002,ISL,ALCOHOL,TOT,1998,5.5
3003,ISL,ALCOHOL,TOT,1999,5.9
3004,ISL,ALCOHOL,TOT,2000,6.2
3005,ISL,ALCOHOL,TOT,2001,6.4
3006,ISL,ALCOHOL,TOT,2002,6.6
3007,ISL,ALCOHOL,TOT,2003,6.6
3008,ISL,ALCOHOL,TOT,2004,6.8
3009,ISL,ALCOHOL,TOT,2005,7.1
3010,ISL,ALCOHOL,TOT,2006,7.2
3011,ISL,ALCOHOL,TOT,2007,7.5
3012,ISL,ALCOHOL,TOT,2008,7.2
3013,ISL,ALCOHOL,TOT,2009,7.2
3014,ISL,ALCOHOL,TOT,2010,6.8
3015,ISL,ALCOHOL,TOT,2011,6.8
3016,ISL,ALCOHOL,TOT,2012,6.8
3017,ISL,ALCOHOL,TOT,2013,6.8
3018,ISL,ALCOHOL,TOT,2014,7.0
3019,ISL,ALCOHOL,TOT,2015,7.7
3020,ISL,ALCOHOL,TOT,2016,7.5
3021,ISL,ALCOHOL,TOT,2017,7.7
3022,ISL,ALCOHOL,TOT,2018,7.7
3023,IRL,ALCOHOL,TOT,1960,4.9
3024,IRL,ALCOHOL,TOT,1961,5.0
3025,IRL,ALCOHOL,TOT,1962,5.5
3026,IRL,ALCOHOL,TOT,1963,5.2
3027,IRL,ALCOHOL,TOT,1964,5.6
3028,IRL,ALCOHOL,TOT,1965,5.8
3029,IRL,ALCOHOL,TOT,1966,5.9
3030,IRL,ALCOHOL,TOT,1967,5.9
3031,IRL,ALCOHOL,TOT,1968,6.1
3032,IRL,ALCOHOL,TOT,1969,6.5
3033,IRL,ALCOHOL,TOT,1970,7.0
3034,IRL,ALCOHOL,TOT,1971,7.3
3035,IRL,ALCOHOL,TOT,1972,7.7
3036,IRL,ALCOHOL,TOT,1973,8.2
3037,IRL,ALCOHOL,TOT,1974,9.3
3038,IRL,ALCOHOL,TOT,1975,9.2
3039,IRL,ALCOHOL,TOT,1976,9.0
3040,IRL,ALCOHOL,TOT,1977,9.2
3041,IRL,ALCOHOL,TOT,1978,9.8
3042,IRL,ALCOHOL,TOT,1979,10.0
3043,IRL,ALCOHOL,TOT,1980,9.6
3044,IRL,ALCOHOL,TOT,1981,9.1
3045,IRL,ALCOHOL,TOT,1982,8.8
3046,IRL,ALCOHOL,TOT,1983,8.0
3047,IRL,ALCOHOL,TOT,1984,9.6
3048,IRL,ALCOHOL,TOT,1985,10.0
3049,IRL,ALCOHOL,TOT,1986,9.6
3050,IRL,ALCOHOL,TOT,1987,9.5
3051,IRL,ALCOHOL,TOT,1988,9.9
3052,IRL,ALCOHOL,TOT,1989,10.2
3053,IRL,ALCOHOL,TOT,1990,11.2
3054,IRL,ALCOHOL,TOT,1991,11.2
3055,IRL,ALCOHOL,TOT,1992,11.4
3056,IRL,ALCOHOL,TOT,1993,11.2
3057,IRL,ALCOHOL,TOT,1994,11.2
3058,IRL,ALCOHOL,TOT,1995,11.5
3059,IRL,ALCOHOL,TOT,1996,12.2
3060,IRL,ALCOHOL,TOT,1997,12.8
3061,IRL,ALCOHOL,TOT,1998,13.2
3062,IRL,ALCOHOL,TOT,1999,13.8
3063,IRL,ALCOHOL,TOT,2000,14.2
3064,IRL,ALCOHOL,TOT,2001,14.5
3065,IRL,ALCOHOL,TOT,2002,14.3
3066,IRL,ALCOHOL,TOT,2003,13.5
3067,IRL,ALCOHOL,TOT,2004,13.6
3068,IRL,ALCOHOL,TOT,2005,13.4
3069,IRL,ALCOHOL,TOT,2006,13.4
3070,IRL,ALCOHOL,TOT,2007,13.2
3071,IRL,ALCOHOL,TOT,2008,12.2
3072,IRL,ALCOHOL,TOT,2009,11.0
3073,IRL,ALCOHOL,TOT,2010,11.6
3074,IRL,ALCOHOL,TOT,2011,11.7
3075,IRL,ALCOHOL,TOT,2012,11.5
3076,IRL,ALCOHOL,TOT,2013,10.6
3077,IRL,ALCOHOL,TOT,2014,10.8
3078,IRL,ALCOHOL,TOT,2015,10.7
3079,IRL,ALCOHOL,TOT,2016,11.2
3080,IRL,ALCOHOL,TOT,2017,11.0
3081,ITA,ALCOHOL,TOT,1961,19.2
3082,ITA,ALCOHOL,TOT,1962,19.4
3083,ITA,ALCOHOL,TOT,1963,18.2
3084,ITA,ALCOHOL,TOT,1964,17.8
3085,ITA,ALCOHOL,TOT,1965,18.4
3086,ITA,ALCOHOL,TOT,1966,18.7
3087,ITA,ALCOHOL,TOT,1967,19.0
3088,ITA,ALCOHOL,TOT,1968,19.7
3089,ITA,ALCOHOL,TOT,1969,19.7
3090,ITA,ALCOHOL,TOT,1970,19.7
3091,ITA,ALCOHOL,TOT,1971,19.6
3092,ITA,ALCOHOL,TOT,1972,19.5
3093,ITA,ALCOHOL,TOT,1973,19.9
3094,ITA,ALCOHOL,TOT,1974,19.7
3095,ITA,ALCOHOL,TOT,1975,18.3
3096,ITA,ALCOHOL,TOT,1976,17.6
3097,ITA,ALCOHOL,TOT,1977,17.0
3098,ITA,ALCOHOL,TOT,1978,16.5
3099,ITA,ALCOHOL,TOT,1979,16.5
3100,ITA,ALCOHOL,TOT,1980,16.7
3101,ITA,ALCOHOL,TOT,1981,15.1
3102,ITA,ALCOHOL,TOT,1982,14.5
3103,ITA,ALCOHOL,TOT,1983,14.6
3104,ITA,ALCOHOL,TOT,1984,14.1
3105,ITA,ALCOHOL,TOT,1985,13.2
3106,ITA,ALCOHOL,TOT,1986,12.4
3107,ITA,ALCOHOL,TOT,1987,11.8
3108,ITA,ALCOHOL,TOT,1988,11.4
3109,ITA,ALCOHOL,TOT,1989,11.0
3110,ITA,ALCOHOL,TOT,1990,11.0
3111,ITA,ALCOHOL,TOT,1991,10.8
3112,ITA,ALCOHOL,TOT,1992,10.6
3113,ITA,ALCOHOL,TOT,1993,10.3
3114,ITA,ALCOHOL,TOT,1994,10.1
3115,ITA,ALCOHOL,TOT,1995,9.6
3116,ITA,ALCOHOL,TOT,1996,9.1
3117,ITA,ALCOHOL,TOT,1997,9.1
3118,ITA,ALCOHOL,TOT,1998,9.0
3119,ITA,ALCOHOL,TOT,1999,8.9
3120,ITA,ALCOHOL,TOT,2000,9.8
3121,ITA,ALCOHOL,TOT,2001,9.7
3122,ITA,ALCOHOL,TOT,2002,9.3
3123,ITA,ALCOHOL,TOT,2003,9.3
3124,ITA,ALCOHOL,TOT,2004,9.0
3125,ITA,ALCOHOL,TOT,2005,7.4
3126,ITA,ALCOHOL,TOT,2006,7.3
3127,ITA,ALCOHOL,TOT,2007,7.2
3128,ITA,ALCOHOL,TOT,2008,6.8
3129,ITA,ALCOHOL,TOT,2009,6.4
3130,ITA,ALCOHOL,TOT,2010,7.0
3131,ITA,ALCOHOL,TOT,2011,7.0
3132,ITA,ALCOHOL,TOT,2012,7.5
3133,ITA,ALCOHOL,TOT,2013,7.4
3134,ITA,ALCOHOL,TOT,2014,7.6
3135,ITA,ALCOHOL,TOT,2015,7.1
3136,ITA,ALCOHOL,TOT,2016,7.6
3137,JPN,ALCOHOL,TOT,1963,5.0
3138,JPN,ALCOHOL,TOT,1964,5.2
3139,JPN,ALCOHOL,TOT,1965,5.3
3140,JPN,ALCOHOL,TOT,1966,5.3
3141,JPN,ALCOHOL,TOT,1967,5.4
3142,JPN,ALCOHOL,TOT,1968,5.5
3143,JPN,ALCOHOL,TOT,1969,5.8
3144,JPN,ALCOHOL,TOT,1970,6.1
3145,JPN,ALCOHOL,TOT,1971,6.1
3146,JPN,ALCOHOL,TOT,1972,6.2
3147,JPN,ALCOHOL,TOT,1973,6.5
3148,JPN,ALCOHOL,TOT,1974,6.6
3149,JPN,ALCOHOL,TOT,1975,6.7
3150,JPN,ALCOHOL,TOT,1976,6.7
3151,JPN,ALCOHOL,TOT,1977,7.0
3152,JPN,ALCOHOL,TOT,1978,7.0
3153,JPN,ALCOHOL,TOT,1979,7.2
3154,JPN,ALCOHOL,TOT,1980,7.1
3155,JPN,ALCOHOL,TOT,1981,7.2
3156,JPN,ALCOHOL,TOT,1982,7.3
3157,JPN,ALCOHOL,TOT,1983,7.5
3158,JPN,ALCOHOL,TOT,1984,7.4
3159,JPN,ALCOHOL,TOT,1985,7.3
3160,JPN,ALCOHOL,TOT,1986,7.5
3161,JPN,ALCOHOL,TOT,1987,7.9
3162,JPN,ALCOHOL,TOT,1988,8.3
3163,JPN,ALCOHOL,TOT,1989,8.6
3164,JPN,ALCOHOL,TOT,1990,9.2
3165,JPN,ALCOHOL,TOT,1991,8.9
3166,JPN,ALCOHOL,TOT,1992,8.9
3167,JPN,ALCOHOL,TOT,1993,9.2
3168,JPN,ALCOHOL,TOT,1994,9.1
3169,JPN,ALCOHOL,TOT,1995,8.9
3170,JPN,ALCOHOL,TOT,1996,9.0
3171,JPN,ALCOHOL,TOT,1997,8.8
3172,JPN,ALCOHOL,TOT,1998,8.7
3173,JPN,ALCOHOL,TOT,1999,8.8
3174,JPN,ALCOHOL,TOT,2000,8.6
3175,JPN,ALCOHOL,TOT,2001,8.6
3176,JPN,ALCOHOL,TOT,2002,8.4
3177,JPN,ALCOHOL,TOT,2003,8.4
3178,JPN,ALCOHOL,TOT,2004,8.2
3179,JPN,ALCOHOL,TOT,2005,8.5
3180,JPN,ALCOHOL,TOT,2006,7.9
3181,JPN,ALCOHOL,TOT,2007,7.7
3182,JPN,ALCOHOL,TOT,2008,7.5
3183,JPN,ALCOHOL,TOT,2009,7.4
3184,JPN,ALCOHOL,TOT,2010,7.3
3185,JPN,ALCOHOL,TOT,2011,7.3
3186,JPN,ALCOHOL,TOT,2012,7.2
3187,JPN,ALCOHOL,TOT,2013,7.4
3188,JPN,ALCOHOL,TOT,2014,7.1
3189,JPN,ALCOHOL,TOT,2015,7.2
3190,JPN,ALCOHOL,TOT,2016,7.2
3191,JPN,ALCOHOL,TOT,2017,7.2
3192,KOR,ALCOHOL,TOT,1961,6.0
3193,KOR,ALCOHOL,TOT,1962,7.0
3194,KOR,ALCOHOL,TOT,1963,5.9
3195,KOR,ALCOHOL,TOT,1964,5.2
3196,KOR,ALCOHOL,TOT,1965,6.0
3197,KOR,ALCOHOL,TOT,1966,7.6
3198,KOR,ALCOHOL,TOT,1967,8.9
3199,KOR,ALCOHOL,TOT,1968,8.4
3200,KOR,ALCOHOL,TOT,1969,9.4
3201,KOR,ALCOHOL,TOT,1970,11.3
3202,KOR,ALCOHOL,TOT,1971,14.4
3203,KOR,ALCOHOL,TOT,1972,15.2
3204,KOR,ALCOHOL,TOT,1973,16.8
3205,KOR,ALCOHOL,TOT,1974,16.6
3206,KOR,ALCOHOL,TOT,1975,15.2
3207,KOR,ALCOHOL,TOT,1976,16.0
3208,KOR,ALCOHOL,TOT,1977,16.7
3209,KOR,ALCOHOL,TOT,1978,14.3
3210,KOR,ALCOHOL,TOT,1979,14.4
3211,KOR,ALCOHOL,TOT,1980,14.8
3212,KOR,ALCOHOL,TOT,1981,14.2
3213,KOR,ALCOHOL,TOT,1982,13.7
3214,KOR,ALCOHOL,TOT,1983,10.7
3215,KOR,ALCOHOL,TOT,1984,10.7
3216,KOR,ALCOHOL,TOT,1985,10.2
3217,KOR,ALCOHOL,TOT,1986,10.3
3218,KOR,ALCOHOL,TOT,1987,10.2
3219,KOR,ALCOHOL,TOT,1988,9.5
3220,KOR,ALCOHOL,TOT,1989,9.5
3221,KOR,ALCOHOL,TOT,1990,9.1
3222,KOR,ALCOHOL,TOT,1991,8.8
3223,KOR,ALCOHOL,TOT,1992,8.9
3224,KOR,ALCOHOL,TOT,1993,8.7
3225,KOR,ALCOHOL,TOT,1994,9.1
3226,KOR,ALCOHOL,TOT,1995,8.9
3227,KOR,ALCOHOL,TOT,1996,9.1
3228,KOR,ALCOHOL,TOT,1997,8.9
3229,KOR,ALCOHOL,TOT,1998,8.7
3230,KOR,ALCOHOL,TOT,1999,9.2
3231,KOR,ALCOHOL,TOT,2000,8.9
3232,KOR,ALCOHOL,TOT,2001,8.5
3233,KOR,ALCOHOL,TOT,2002,9.2
3234,KOR,ALCOHOL,TOT,2003,9.3
3235,KOR,ALCOHOL,TOT,2004,9.3
3236,KOR,ALCOHOL,TOT,2005,9.0
3237,KOR,ALCOHOL,TOT,2006,9.2
3238,KOR,ALCOHOL,TOT,2007,9.3
3239,KOR,ALCOHOL,TOT,2008,9.5
3240,KOR,ALCOHOL,TOT,2009,8.9
3241,KOR,ALCOHOL,TOT,2010,9.0
3242,KOR,ALCOHOL,TOT,2011,8.9
3243,KOR,ALCOHOL,TOT,2012,9.1
3244,KOR,ALCOHOL,TOT,2013,8.7
3245,KOR,ALCOHOL,TOT,2014,8.9
3246,KOR,ALCOHOL,TOT,2015,9.1
3247,KOR,ALCOHOL,TOT,2016,8.7
3248,KOR,ALCOHOL,TOT,2017,8.7
3249,LUX,ALCOHOL,TOT,1961,18.5
3250,LUX,ALCOHOL,TOT,1962,18.3
3251,LUX,ALCOHOL,TOT,1963,18.7
3252,LUX,ALCOHOL,TOT,1964,18.8
3253,LUX,ALCOHOL,TOT,1965,18.7
3254,LUX,ALCOHOL,TOT,1966,18.5
3255,LUX,ALCOHOL,TOT,1967,18.3
3256,LUX,ALCOHOL,TOT,1968,18.3
3257,LUX,ALCOHOL,TOT,1969,18.6
3258,LUX,ALCOHOL,TOT,1970,18.7
3259,LUX,ALCOHOL,TOT,1971,19.0
3260,LUX,ALCOHOL,TOT,1972,18.7
3261,LUX,ALCOHOL,TOT,1973,19.1
3262,LUX,ALCOHOL,TOT,1974,18.5
3263,LUX,ALCOHOL,TOT,1975,19.0
3264,LUX,ALCOHOL,TOT,1976,19.0
3265,LUX,ALCOHOL,TOT,1977,18.6
3266,LUX,ALCOHOL,TOT,1978,18.1
3267,LUX,ALCOHOL,TOT,1979,18.0
3268,LUX,ALCOHOL,TOT,1980,17.7
3269,LUX,ALCOHOL,TOT,1981,17.2
3270,LUX,ALCOHOL,TOT,1982,17.0
3271,LUX,ALCOHOL,TOT,1983,16.7
3272,LUX,ALCOHOL,TOT,1984,16.0
3273,LUX,ALCOHOL,TOT,1985,15.9
3274,LUX,ALCOHOL,TOT,1986,15.4
3275,LUX,ALCOHOL,TOT,1987,15.4
3276,LUX,ALCOHOL,TOT,1988,15.2
3277,LUX,ALCOHOL,TOT,1989,15.3
3278,LUX,ALCOHOL,TOT,1990,15.3
3279,LUX,ALCOHOL,TOT,1991,14.4
3280,LUX,ALCOHOL,TOT,1992,14.3
3281,LUX,ALCOHOL,TOT,1993,13.9
3282,LUX,ALCOHOL,TOT,1994,13.7
3283,LUX,ALCOHOL,TOT,1995,13.7
3284,LUX,ALCOHOL,TOT,1996,13.4
3285,LUX,ALCOHOL,TOT,1997,13.2
3286,LUX,ALCOHOL,TOT,1998,13.0
3287,LUX,ALCOHOL,TOT,1999,13.0
3288,LUX,ALCOHOL,TOT,2000,13.3
3289,LUX,ALCOHOL,TOT,2001,13.2
3290,LUX,ALCOHOL,TOT,2002,13.0
3291,LUX,ALCOHOL,TOT,2003,12.7
3292,LUX,ALCOHOL,TOT,2004,12.5
3293,LUX,ALCOHOL,TOT,2005,12.3
3294,LUX,ALCOHOL,TOT,2006,12.3
3295,LUX,ALCOHOL,TOT,2007,12.2
3296,LUX,ALCOHOL,TOT,2008,12.0
3297,LUX,ALCOHOL,TOT,2009,12.0
3298,LUX,ALCOHOL,TOT,2010,11.8
3299,LUX,ALCOHOL,TOT,2011,12.1
3300,LUX,ALCOHOL,TOT,2012,12.0
3301,LUX,ALCOHOL,TOT,2013,11.7
3302,LUX,ALCOHOL,TOT,2014,11.8
3303,LUX,ALCOHOL,TOT,2015,11.9
3304,LUX,ALCOHOL,TOT,2016,11.3
3305,MEX,ALCOHOL,TOT,1961,2.8
3306,MEX,ALCOHOL,TOT,1962,2.8
3307,MEX,ALCOHOL,TOT,1963,2.6
3308,MEX,ALCOHOL,TOT,1964,2.9
3309,MEX,ALCOHOL,TOT,1965,3.1
3310,MEX,ALCOHOL,TOT,1966,3.1
3311,MEX,ALCOHOL,TOT,1967,3.5
3312,MEX,ALCOHOL,TOT,1968,3.4
3313,MEX,ALCOHOL,TOT,1969,3.5
3314,MEX,ALCOHOL,TOT,1970,3.4
3315,MEX,ALCOHOL,TOT,1971,3.1
3316,MEX,ALCOHOL,TOT,1972,3.3
3317,MEX,ALCOHOL,TOT,1973,3.5
3318,MEX,ALCOHOL,TOT,1974,3.8
3319,MEX,ALCOHOL,TOT,1975,3.9
3320,MEX,ALCOHOL,TOT,1976,4.0
3321,MEX,ALCOHOL,TOT,1977,4.3
3322,MEX,ALCOHOL,TOT,1978,4.0
3323,MEX,ALCOHOL,TOT,1979,4.3
3324,MEX,ALCOHOL,TOT,1980,4.5
3325,MEX,ALCOHOL,TOT,1981,4.8
3326,MEX,ALCOHOL,TOT,1982,4.5
3327,MEX,ALCOHOL,TOT,1983,4.3
3328,MEX,ALCOHOL,TOT,1984,4.4
3329,MEX,ALCOHOL,TOT,1985,4.5
3330,MEX,ALCOHOL,TOT,1986,4.4
3331,MEX,ALCOHOL,TOT,1987,4.7
3332,MEX,ALCOHOL,TOT,1988,4.5
3333,MEX,ALCOHOL,TOT,1989,5.1
3334,MEX,ALCOHOL,TOT,1990,4.9
3335,MEX,ALCOHOL,TOT,1991,4.8
3336,MEX,ALCOHOL,TOT,1992,5.3
3337,MEX,ALCOHOL,TOT,1993,5.2
3338,MEX,ALCOHOL,TOT,1994,5.2
3339,MEX,ALCOHOL,TOT,1995,5.1
3340,MEX,ALCOHOL,TOT,1996,5.3
3341,MEX,ALCOHOL,TOT,1997,4.8
3342,MEX,ALCOHOL,TOT,1998,4.9
3343,MEX,ALCOHOL,TOT,1999,4.9
3344,MEX,ALCOHOL,TOT,2000,5.0
3345,MEX,ALCOHOL,TOT,2001,4.9
3346,MEX,ALCOHOL,TOT,2002,4.8
3347,MEX,ALCOHOL,TOT,2003,4.9
3348,MEX,ALCOHOL,TOT,2004,4.9
3349,MEX,ALCOHOL,TOT,2005,4.9
3350,MEX,ALCOHOL,TOT,2006,5.1
3351,MEX,ALCOHOL,TOT,2007,4.1
3352,MEX,ALCOHOL,TOT,2008,4.0
3353,MEX,ALCOHOL,TOT,2009,4.3
3354,MEX,ALCOHOL,TOT,2010,4.0
3355,MEX,ALCOHOL,TOT,2011,4.0
3356,MEX,ALCOHOL,TOT,2012,3.9
3357,MEX,ALCOHOL,TOT,2013,3.9
3358,MEX,ALCOHOL,TOT,2014,4.0
3359,MEX,ALCOHOL,TOT,2015,4.4
3360,MEX,ALCOHOL,TOT,2016,4.4
3361,NLD,ALCOHOL,TOT,1960,3.7
3362,NLD,ALCOHOL,TOT,1961,3.7
3363,NLD,ALCOHOL,TOT,1962,4.3
3364,NLD,ALCOHOL,TOT,1963,4.8
3365,NLD,ALCOHOL,TOT,1964,5.0
3366,NLD,ALCOHOL,TOT,1965,5.9
3367,NLD,ALCOHOL,TOT,1966,5.4
3368,NLD,ALCOHOL,TOT,1967,6.2
3369,NLD,ALCOHOL,TOT,1968,6.5
3370,NLD,ALCOHOL,TOT,1969,7.2
3371,NLD,ALCOHOL,TOT,1970,7.8
3372,NLD,ALCOHOL,TOT,1971,8.5
3373,NLD,ALCOHOL,TOT,1972,9.3
3374,NLD,ALCOHOL,TOT,1973,10.3
3375,NLD,ALCOHOL,TOT,1974,10.8
3376,NLD,ALCOHOL,TOT,1975,11.9
3377,NLD,ALCOHOL,TOT,1976,11.2
3378,NLD,ALCOHOL,TOT,1977,11.7
3379,NLD,ALCOHOL,TOT,1978,11.9
3380,NLD,ALCOHOL,TOT,1979,12.2
3381,NLD,ALCOHOL,TOT,1980,11.5
3382,NLD,ALCOHOL,TOT,1981,11.3
3383,NLD,ALCOHOL,TOT,1982,11.0
3384,NLD,ALCOHOL,TOT,1983,11.2
3385,NLD,ALCOHOL,TOT,1984,10.8
3386,NLD,ALCOHOL,TOT,1985,10.6
3387,NLD,ALCOHOL,TOT,1986,10.6
3388,NLD,ALCOHOL,TOT,1987,10.2
3389,NLD,ALCOHOL,TOT,1988,10.2
3390,NLD,ALCOHOL,TOT,1989,10.0
3391,NLD,ALCOHOL,TOT,1990,9.9
3392,NLD,ALCOHOL,TOT,1991,10.0
3393,NLD,ALCOHOL,TOT,1992,10.0
3394,NLD,ALCOHOL,TOT,1993,9.7
3395,NLD,ALCOHOL,TOT,1994,9.7
3396,NLD,ALCOHOL,TOT,1995,9.8
3397,NLD,ALCOHOL,TOT,1996,9.9
3398,NLD,ALCOHOL,TOT,1997,10.1
3399,NLD,ALCOHOL,TOT,1998,9.9
3400,NLD,ALCOHOL,TOT,1999,10.1
3401,NLD,ALCOHOL,TOT,2000,10.1
3402,NLD,ALCOHOL,TOT,2001,10.0
3403,NLD,ALCOHOL,TOT,2002,9.8
3404,NLD,ALCOHOL,TOT,2003,9.7
3405,NLD,ALCOHOL,TOT,2004,9.6
3406,NLD,ALCOHOL,TOT,2005,9.6
3407,NLD,ALCOHOL,TOT,2006,9.6
3408,NLD,ALCOHOL,TOT,2007,9.6
3409,NLD,ALCOHOL,TOT,2008,9.7
3410,NLD,ALCOHOL,TOT,2009,9.4
3411,NLD,ALCOHOL,TOT,2010,9.1
3412,NLD,ALCOHOL,TOT,2011,9.0
3413,NLD,ALCOHOL,TOT,2012,9.1
3414,NLD,ALCOHOL,TOT,2013,8.7
3415,NLD,ALCOHOL,TOT,2014,8.4
3416,NLD,ALCOHOL,TOT,2015,8.3
3417,NLD,ALCOHOL,TOT,2016,8.2
3418,NLD,ALCOHOL,TOT,2017,8.3
3419,NZL,ALCOHOL,TOT,1960,7.9
3420,NZL,ALCOHOL,TOT,1965,8.6
3421,NZL,ALCOHOL,TOT,1970,9.8
3422,NZL,ALCOHOL,TOT,1971,10.4
3423,NZL,ALCOHOL,TOT,1972,10.6
3424,NZL,ALCOHOL,TOT,1973,11.3
3425,NZL,ALCOHOL,TOT,1974,11.5
3426,NZL,ALCOHOL,TOT,1975,11.5
3427,NZL,ALCOHOL,TOT,1976,11.6
3428,NZL,ALCOHOL,TOT,1977,11.5
3429,NZL,ALCOHOL,TOT,1978,12.1
3430,NZL,ALCOHOL,TOT,1979,11.6
3431,NZL,ALCOHOL,TOT,1980,11.8
3432,NZL,ALCOHOL,TOT,1981,11.7
3433,NZL,ALCOHOL,TOT,1982,11.7
3434,NZL,ALCOHOL,TOT,1983,10.6
3435,NZL,ALCOHOL,TOT,1984,11.0
3436,NZL,ALCOHOL,TOT,1985,10.8
3437,NZL,ALCOHOL,TOT,1986,11.3
3438,NZL,ALCOHOL,TOT,1987,10.3
3439,NZL,ALCOHOL,TOT,1988,10.1
3440,NZL,ALCOHOL,TOT,1989,10.2
3441,NZL,ALCOHOL,TOT,1990,10.3
3442,NZL,ALCOHOL,TOT,1991,9.9
3443,NZL,ALCOHOL,TOT,1992,9.8
3444,NZL,ALCOHOL,TOT,1993,9.3
3445,NZL,ALCOHOL,TOT,1994,9.5
3446,NZL,ALCOHOL,TOT,1995,9.3
3447,NZL,ALCOHOL,TOT,1996,8.8
3448,NZL,ALCOHOL,TOT,1997,8.7
3449,NZL,ALCOHOL,TOT,1998,8.7
3450,NZL,ALCOHOL,TOT,1999,8.9
3451,NZL,ALCOHOL,TOT,2000,8.9
3452,NZL,ALCOHOL,TOT,2001,8.7
3453,NZL,ALCOHOL,TOT,2002,9.1
3454,NZL,ALCOHOL,TOT,2003,8.9
3455,NZL,ALCOHOL,TOT,2004,9.1
3456,NZL,ALCOHOL,TOT,2005,9.3
3457,NZL,ALCOHOL,TOT,2006,9.3
3458,NZL,ALCOHOL,TOT,2007,9.2
3459,NZL,ALCOHOL,TOT,2008,9.5
3460,NZL,ALCOHOL,TOT,2009,9.3
3461,NZL,ALCOHOL,TOT,2010,9.6
3462,NZL,ALCOHOL,TOT,2011,9.5
3463,NZL,ALCOHOL,TOT,2012,9.2
3464,NZL,ALCOHOL,TOT,2013,9.2
3465,NZL,ALCOHOL,TOT,2014,9.1
3466,NZL,ALCOHOL,TOT,2015,8.7
3467,NZL,ALCOHOL,TOT,2016,8.9
3468,NZL,ALCOHOL,TOT,2017,8.8
3469,NZL,ALCOHOL,TOT,2018,8.8
3470,NOR,ALCOHOL,TOT,1960,3.4
3471,NOR,ALCOHOL,TOT,1961,3.5
3472,NOR,ALCOHOL,TOT,1962,3.5
3473,NOR,ALCOHOL,TOT,1963,3.6
3474,NOR,ALCOHOL,TOT,1964,3.5
3475,NOR,ALCOHOL,TOT,1965,3.7
3476,NOR,ALCOHOL,TOT,1966,3.8
3477,NOR,ALCOHOL,TOT,1967,4.0
3478,NOR,ALCOHOL,TOT,1968,4.3
3479,NOR,ALCOHOL,TOT,1969,4.4
3480,NOR,ALCOHOL,TOT,1970,4.7
3481,NOR,ALCOHOL,TOT,1971,4.9
3482,NOR,ALCOHOL,TOT,1972,5.0
3483,NOR,ALCOHOL,TOT,1973,5.1
3484,NOR,ALCOHOL,TOT,1974,5.5
3485,NOR,ALCOHOL,TOT,1975,5.5
3486,NOR,ALCOHOL,TOT,1976,5.7
3487,NOR,ALCOHOL,TOT,1977,5.7
3488,NOR,ALCOHOL,TOT,1978,5.2
3489,NOR,ALCOHOL,TOT,1979,5.6
3490,NOR,ALCOHOL,TOT,1980,6.0
3491,NOR,ALCOHOL,TOT,1981,5.3
3492,NOR,ALCOHOL,TOT,1982,4.8
3493,NOR,ALCOHOL,TOT,1983,4.9
3494,NOR,ALCOHOL,TOT,1984,5.0
3495,NOR,ALCOHOL,TOT,1985,5.2
3496,NOR,ALCOHOL,TOT,1986,5.3
3497,NOR,ALCOHOL,TOT,1987,5.4
3498,NOR,ALCOHOL,TOT,1988,5.3
3499,NOR,ALCOHOL,TOT,1989,5.1
3500,NOR,ALCOHOL,TOT,1990,5.0
3501,NOR,ALCOHOL,TOT,1991,4.9
3502,NOR,ALCOHOL,TOT,1992,4.7
3503,NOR,ALCOHOL,TOT,1993,4.6
3504,NOR,ALCOHOL,TOT,1994,4.7
3505,NOR,ALCOHOL,TOT,1995,4.8
3506,NOR,ALCOHOL,TOT,1996,5.0
3507,NOR,ALCOHOL,TOT,1997,5.3
3508,NOR,ALCOHOL,TOT,1998,5.2
3509,NOR,ALCOHOL,TOT,1999,5.5
3510,NOR,ALCOHOL,TOT,2000,5.7
3511,NOR,ALCOHOL,TOT,2001,5.5
3512,NOR,ALCOHOL,TOT,2002,5.9
3513,NOR,ALCOHOL,TOT,2003,6.0
3514,NOR,ALCOHOL,TOT,2004,6.2
3515,NOR,ALCOHOL,TOT,2005,6.4
3516,NOR,ALCOHOL,TOT,2006,6.5
3517,NOR,ALCOHOL,TOT,2007,6.6
3518,NOR,ALCOHOL,TOT,2008,6.8
3519,NOR,ALCOHOL,TOT,2009,6.7
3520,NOR,ALCOHOL,TOT,2010,6.6
3521,NOR,ALCOHOL,TOT,2011,6.4
3522,NOR,ALCOHOL,TOT,2012,6.2
3523,NOR,ALCOHOL,TOT,2013,6.2
3524,NOR,ALCOHOL,TOT,2014,6.1
3525,NOR,ALCOHOL,TOT,2015,6.0
3526,NOR,ALCOHOL,TOT,2016,6.0
3527,NOR,ALCOHOL,TOT,2017,6.0
3528,NOR,ALCOHOL,TOT,2018,6.0
3529,POL,ALCOHOL,TOT,1961,6.3
3530,POL,ALCOHOL,TOT,1962,6.1
3531,POL,ALCOHOL,TOT,1963,6.2
3532,POL,ALCOHOL,TOT,1964,6.2
3533,POL,ALCOHOL,TOT,1965,6.4
3534,POL,ALCOHOL,TOT,1966,6.6
3535,POL,ALCOHOL,TOT,1967,6.9
3536,POL,ALCOHOL,TOT,1968,7.4
3537,POL,ALCOHOL,TOT,1969,7.7
3538,POL,ALCOHOL,TOT,1970,7.6
3539,POL,ALCOHOL,TOT,1971,8.0
3540,POL,ALCOHOL,TOT,1972,8.6
3541,POL,ALCOHOL,TOT,1973,9.2
3542,POL,ALCOHOL,TOT,1974,8.7
3543,POL,ALCOHOL,TOT,1975,9.6
3544,POL,ALCOHOL,TOT,1976,10.8
3545,POL,ALCOHOL,TOT,1977,11.3
3546,POL,ALCOHOL,TOT,1978,10.9
3547,POL,ALCOHOL,TOT,1979,10.9
3548,POL,ALCOHOL,TOT,1980,11.5
3549,POL,ALCOHOL,TOT,1981,8.7
3550,POL,ALCOHOL,TOT,1982,8.5
3551,POL,ALCOHOL,TOT,1983,8.6
3552,POL,ALCOHOL,TOT,1984,8.7
3553,POL,ALCOHOL,TOT,1985,9.4
3554,POL,ALCOHOL,TOT,1986,9.7
3555,POL,ALCOHOL,TOT,1987,9.7
3556,POL,ALCOHOL,TOT,1988,9.5
3557,POL,ALCOHOL,TOT,1989,9.2
3558,POL,ALCOHOL,TOT,1990,8.3
3559,POL,ALCOHOL,TOT,1991,8.8
3560,POL,ALCOHOL,TOT,1992,8.3
3561,POL,ALCOHOL,TOT,1993,8.4
3562,POL,ALCOHOL,TOT,1994,8.3
3563,POL,ALCOHOL,TOT,1995,8.1
3564,POL,ALCOHOL,TOT,1996,8.1
3565,POL,ALCOHOL,TOT,1997,8.6
3566,POL,ALCOHOL,TOT,1998,8.4
3567,POL,ALCOHOL,TOT,1999,8.3
3568,POL,ALCOHOL,TOT,2000,8.4
3569,POL,ALCOHOL,TOT,2001,7.8
3570,POL,ALCOHOL,TOT,2002,8.1
3571,POL,ALCOHOL,TOT,2003,9.1
3572,POL,ALCOHOL,TOT,2004,9.2
3573,POL,ALCOHOL,TOT,2005,9.1
3574,POL,ALCOHOL,TOT,2006,9.9
3575,POL,ALCOHOL,TOT,2007,10.3
3576,POL,ALCOHOL,TOT,2008,10.8
3577,POL,ALCOHOL,TOT,2009,10.2
3578,POL,ALCOHOL,TOT,2010,10.0
3579,POL,ALCOHOL,TOT,2011,10.3
3580,POL,ALCOHOL,TOT,2012,10.2
3581,POL,ALCOHOL,TOT,2013,10.8
3582,POL,ALCOHOL,TOT,2014,10.5
3583,POL,ALCOHOL,TOT,2015,10.5
3584,POL,ALCOHOL,TOT,2016,10.5
3585,POL,ALCOHOL,TOT,2017,10.6
3586,PRT,ALCOHOL,TOT,1961,15.0
3587,PRT,ALCOHOL,TOT,1962,15.2
3588,PRT,ALCOHOL,TOT,1963,18.5
3589,PRT,ALCOHOL,TOT,1964,19.4
3590,PRT,ALCOHOL,TOT,1965,19.5
3591,PRT,ALCOHOL,TOT,1966,16.9
3592,PRT,ALCOHOL,TOT,1967,17.0
3593,PRT,ALCOHOL,TOT,1968,18.3
3594,PRT,ALCOHOL,TOT,1969,14.0
3595,PRT,ALCOHOL,TOT,1970,19.9
3596,PRT,ALCOHOL,TOT,1971,16.0
3597,PRT,ALCOHOL,TOT,1972,16.2
3598,PRT,ALCOHOL,TOT,1973,19.1
3599,PRT,ALCOHOL,TOT,1974,18.3
3600,PRT,ALCOHOL,TOT,1975,19.6
3601,PRT,ALCOHOL,TOT,1976,16.9
3602,PRT,ALCOHOL,TOT,1977,13.7
3603,PRT,ALCOHOL,TOT,1978,14.0
3604,PRT,ALCOHOL,TOT,1979,14.2
3605,PRT,ALCOHOL,TOT,1980,14.9
3606,PRT,ALCOHOL,TOT,1981,15.4
3607,PRT,ALCOHOL,TOT,1982,17.0
3608,PRT,ALCOHOL,TOT,1983,15.9
3609,PRT,ALCOHOL,TOT,1984,16.4
3610,PRT,ALCOHOL,TOT,1985,13.9
3611,PRT,ALCOHOL,TOT,1986,13.5
3612,PRT,ALCOHOL,TOT,1987,12.4
3613,PRT,ALCOHOL,TOT,1988,12.9
3614,PRT,ALCOHOL,TOT,1989,14.6
3615,PRT,ALCOHOL,TOT,1990,14.4
3616,PRT,ALCOHOL,TOT,1991,14.0
3617,PRT,ALCOHOL,TOT,1992,13.6
3618,PRT,ALCOHOL,TOT,1993,13.4
3619,PRT,ALCOHOL,TOT,1994,13.3
3620,PRT,ALCOHOL,TOT,1995,12.8
3621,PRT,ALCOHOL,TOT,1996,12.1
3622,PRT,ALCOHOL,TOT,1997,11.8
3623,PRT,ALCOHOL,TOT,1998,11.7
3624,PRT,ALCOHOL,TOT,1999,13.2
3625,PRT,ALCOHOL,TOT,2000,13.1
3626,PRT,ALCOHOL,TOT,2001,13.4
3627,PRT,ALCOHOL,TOT,2002,13.2
3628,PRT,ALCOHOL,TOT,2003,14.2
3629,PRT,ALCOHOL,TOT,2004,13.5
3630,PRT,ALCOHOL,TOT,2005,13.3
3631,PRT,ALCOHOL,TOT,2006,13.1
3632,PRT,ALCOHOL,TOT,2007,12.6
3633,PRT,ALCOHOL,TOT,2008,12.4
3634,PRT,ALCOHOL,TOT,2009,12.0
3635,PRT,ALCOHOL,TOT,2010,12.2
3636,PRT,ALCOHOL,TOT,2011,11.9
3637,PRT,ALCOHOL,TOT,2012,10.9
3638,PRT,ALCOHOL,TOT,2013,10.5
3639,PRT,ALCOHOL,TOT,2014,10.4
3640,PRT,ALCOHOL,TOT,2015,10.5
3641,PRT,ALCOHOL,TOT,2016,10.7
3642,SVK,ALCOHOL,TOT,1960,6.9
3643,SVK,ALCOHOL,TOT,1961,7.1
3644,SVK,ALCOHOL,TOT,1962,7.4
3645,SVK,ALCOHOL,TOT,1963,8.1
3646,SVK,ALCOHOL,TOT,1964,9.3
3647,SVK,ALCOHOL,TOT,1965,10.5
3648,SVK,ALCOHOL,TOT,1966,11.1
3649,SVK,ALCOHOL,TOT,1967,11.6
3650,SVK,ALCOHOL,TOT,1968,11.8
3651,SVK,ALCOHOL,TOT,1969,12.2
3652,SVK,ALCOHOL,TOT,1970,12.8
3653,SVK,ALCOHOL,TOT,1971,13.6
3654,SVK,ALCOHOL,TOT,1972,13.8
3655,SVK,ALCOHOL,TOT,1973,13.7
3656,SVK,ALCOHOL,TOT,1974,13.8
3657,SVK,ALCOHOL,TOT,1975,14.3
3658,SVK,ALCOHOL,TOT,1976,14.1
3659,SVK,ALCOHOL,TOT,1977,14.9
3660,SVK,ALCOHOL,TOT,1978,14.9
3661,SVK,ALCOHOL,TOT,1979,14.1
3662,SVK,ALCOHOL,TOT,1980,14.5
3663,SVK,ALCOHOL,TOT,1981,14.5
3664,SVK,ALCOHOL,TOT,1982,14.7
3665,SVK,ALCOHOL,TOT,1983,14.2
3666,SVK,ALCOHOL,TOT,1984,13.9
3667,SVK,ALCOHOL,TOT,1985,13.9
3668,SVK,ALCOHOL,TOT,1986,13.2
3669,SVK,ALCOHOL,TOT,1987,13.3
3670,SVK,ALCOHOL,TOT,1988,12.9
3671,SVK,ALCOHOL,TOT,1989,13.0
3672,SVK,ALCOHOL,TOT,1990,13.4
3673,SVK,ALCOHOL,TOT,1991,13.7
3674,SVK,ALCOHOL,TOT,1992,12.7
3675,SVK,ALCOHOL,TOT,1993,12.1
3676,SVK,ALCOHOL,TOT,1994,10.6
3677,SVK,ALCOHOL,TOT,1995,10.3
3678,SVK,ALCOHOL,TOT,1996,10.7
3679,SVK,ALCOHOL,TOT,1997,10.8
3680,SVK,ALCOHOL,TOT,1998,10.0
3681,SVK,ALCOHOL,TOT,1999,10.0
3682,SVK,ALCOHOL,TOT,2000,11.0
3683,SVK,ALCOHOL,TOT,2001,10.8
3684,SVK,ALCOHOL,TOT,2002,10.8
3685,SVK,ALCOHOL,TOT,2003,9.9
3686,SVK,ALCOHOL,TOT,2004,10.1
3687,SVK,ALCOHOL,TOT,2005,11.0
3688,SVK,ALCOHOL,TOT,2006,10.6
3689,SVK,ALCOHOL,TOT,2007,10.7
3690,SVK,ALCOHOL,TOT,2008,11.2
3691,SVK,ALCOHOL,TOT,2009,10.7
3692,SVK,ALCOHOL,TOT,2010,10.1
3693,SVK,ALCOHOL,TOT,2011,10.2
3694,SVK,ALCOHOL,TOT,2012,10.1
3695,SVK,ALCOHOL,TOT,2013,9.9
3696,SVK,ALCOHOL,TOT,2014,10.1
3697,SVK,ALCOHOL,TOT,2015,10.2
3698,SVK,ALCOHOL,TOT,2016,9.9
3699,SVK,ALCOHOL,TOT,2017,9.7
3700,ESP,ALCOHOL,TOT,1962,14.6
3701,ESP,ALCOHOL,TOT,1963,13.6
3702,ESP,ALCOHOL,TOT,1964,13.9
3703,ESP,ALCOHOL,TOT,1965,14.6
3704,ESP,ALCOHOL,TOT,1966,16.0
3705,ESP,ALCOHOL,TOT,1967,14.5
3706,ESP,ALCOHOL,TOT,1968,14.9
3707,ESP,ALCOHOL,TOT,1969,15.2
3708,ESP,ALCOHOL,TOT,1970,15.3
3709,ESP,ALCOHOL,TOT,1971,15.1
3710,ESP,ALCOHOL,TOT,1972,16.3
3711,ESP,ALCOHOL,TOT,1973,18.0
3712,ESP,ALCOHOL,TOT,1974,18.4
3713,ESP,ALCOHOL,TOT,1975,18.5
3714,ESP,ALCOHOL,TOT,1976,17.9
3715,ESP,ALCOHOL,TOT,1977,17.1
3716,ESP,ALCOHOL,TOT,1978,18.3
3717,ESP,ALCOHOL,TOT,1979,17.7
3718,ESP,ALCOHOL,TOT,1980,17.7
3719,ESP,ALCOHOL,TOT,1981,16.8
3720,ESP,ALCOHOL,TOT,1982,16.2
3721,ESP,ALCOHOL,TOT,1983,16.2
3722,ESP,ALCOHOL,TOT,1984,14.5
3723,ESP,ALCOHOL,TOT,1985,14.5
3724,ESP,ALCOHOL,TOT,1986,14.4
3725,ESP,ALCOHOL,TOT,1987,14.4
3726,ESP,ALCOHOL,TOT,1988,13.5
3727,ESP,ALCOHOL,TOT,1989,13.3
3728,ESP,ALCOHOL,TOT,1990,12.9
3729,ESP,ALCOHOL,TOT,1991,12.8
3730,ESP,ALCOHOL,TOT,1992,12.1
3731,ESP,ALCOHOL,TOT,1993,11.6
3732,ESP,ALCOHOL,TOT,1994,11.3
3733,ESP,ALCOHOL,TOT,1995,11.0
3734,ESP,ALCOHOL,TOT,1996,10.8
3735,ESP,ALCOHOL,TOT,1997,11.6
3736,ESP,ALCOHOL,TOT,1998,11.5
3737,ESP,ALCOHOL,TOT,1999,11.3
3738,ESP,ALCOHOL,TOT,2000,11.8
3739,ESP,ALCOHOL,TOT,2001,12.4
3740,ESP,ALCOHOL,TOT,2002,10.7
3741,ESP,ALCOHOL,TOT,2003,11.4
3742,ESP,ALCOHOL,TOT,2004,11.7
3743,ESP,ALCOHOL,TOT,2005,11.9
3744,ESP,ALCOHOL,TOT,2006,11.9
3745,ESP,ALCOHOL,TOT,2007,11.1
3746,ESP,ALCOHOL,TOT,2008,10.2
3747,ESP,ALCOHOL,TOT,2009,10.0
3748,ESP,ALCOHOL,TOT,2010,9.8
3749,ESP,ALCOHOL,TOT,2011,9.0
3750,ESP,ALCOHOL,TOT,2012,8.8
3751,ESP,ALCOHOL,TOT,2013,8.8
3752,ESP,ALCOHOL,TOT,2014,8.7
3753,ESP,ALCOHOL,TOT,2015,8.3
3754,ESP,ALCOHOL,TOT,2016,8.6
3755,SWE,ALCOHOL,TOT,1960,4.8
3756,SWE,ALCOHOL,TOT,1961,5.1
3757,SWE,ALCOHOL,TOT,1962,5.1
3758,SWE,ALCOHOL,TOT,1963,5.1
3759,SWE,ALCOHOL,TOT,1964,5.4
3760,SWE,ALCOHOL,TOT,1965,5.7
3761,SWE,ALCOHOL,TOT,1966,6.0
3762,SWE,ALCOHOL,TOT,1967,6.3
3763,SWE,ALCOHOL,TOT,1968,6.6
3764,SWE,ALCOHOL,TOT,1969,7.0
3765,SWE,ALCOHOL,TOT,1970,7.2
3766,SWE,ALCOHOL,TOT,1971,7.0
3767,SWE,ALCOHOL,TOT,1972,7.3
3768,SWE,ALCOHOL,TOT,1973,7.0
3769,SWE,ALCOHOL,TOT,1974,7.4
3770,SWE,ALCOHOL,TOT,1975,7.6
3771,SWE,ALCOHOL,TOT,1976,7.7
3772,SWE,ALCOHOL,TOT,1977,7.3
3773,SWE,ALCOHOL,TOT,1978,7.0
3774,SWE,ALCOHOL,TOT,1979,7.1
3775,SWE,ALCOHOL,TOT,1980,6.7
3776,SWE,ALCOHOL,TOT,1981,6.3
3777,SWE,ALCOHOL,TOT,1982,6.4
3778,SWE,ALCOHOL,TOT,1983,6.1
3779,SWE,ALCOHOL,TOT,1984,6.0
3780,SWE,ALCOHOL,TOT,1985,6.1
3781,SWE,ALCOHOL,TOT,1986,6.3
3782,SWE,ALCOHOL,TOT,1987,6.2
3783,SWE,ALCOHOL,TOT,1988,6.4
3784,SWE,ALCOHOL,TOT,1989,6.5
3785,SWE,ALCOHOL,TOT,1990,6.4
3786,SWE,ALCOHOL,TOT,1991,6.3
3787,SWE,ALCOHOL,TOT,1992,6.3
3788,SWE,ALCOHOL,TOT,1993,6.2
3789,SWE,ALCOHOL,TOT,1994,6.3
3790,SWE,ALCOHOL,TOT,1995,6.2
3791,SWE,ALCOHOL,TOT,1996,6.0
3792,SWE,ALCOHOL,TOT,1997,5.9
3793,SWE,ALCOHOL,TOT,1998,5.8
3794,SWE,ALCOHOL,TOT,1999,6.1
3795,SWE,ALCOHOL,TOT,2000,6.2
3796,SWE,ALCOHOL,TOT,2001,6.5
3797,SWE,ALCOHOL,TOT,2002,6.9
3798,SWE,ALCOHOL,TOT,2003,6.9
3799,SWE,ALCOHOL,TOT,2004,6.5
3800,SWE,ALCOHOL,TOT,2005,6.5
3801,SWE,ALCOHOL,TOT,2006,6.8
3802,SWE,ALCOHOL,TOT,2007,7.0
3803,SWE,ALCOHOL,TOT,2008,7.0
3804,SWE,ALCOHOL,TOT,2009,7.3
3805,SWE,ALCOHOL,TOT,2010,7.3
3806,SWE,ALCOHOL,TOT,2011,7.4
3807,SWE,ALCOHOL,TOT,2012,7.2
3808,SWE,ALCOHOL,TOT,2013,7.3
3809,SWE,ALCOHOL,TOT,2014,7.2
3810,SWE,ALCOHOL,TOT,2015,7.2
3811,SWE,ALCOHOL,TOT,2016,7.2
3812,SWE,ALCOHOL,TOT,2017,7.1
3813,CHE,ALCOHOL,TOT,1960,12.1
3814,CHE,ALCOHOL,TOT,1961,12.7
3815,CHE,ALCOHOL,TOT,1962,12.9
3816,CHE,ALCOHOL,TOT,1963,13.1
3817,CHE,ALCOHOL,TOT,1964,13.8
3818,CHE,ALCOHOL,TOT,1965,13.7
3819,CHE,ALCOHOL,TOT,1966,13.6
3820,CHE,ALCOHOL,TOT,1967,13.6
3821,CHE,ALCOHOL,TOT,1968,13.6
3822,CHE,ALCOHOL,TOT,1969,14.0
3823,CHE,ALCOHOL,TOT,1970,14.2
3824,CHE,ALCOHOL,TOT,1971,14.2
3825,CHE,ALCOHOL,TOT,1972,14.5
3826,CHE,ALCOHOL,TOT,1973,15.0
3827,CHE,ALCOHOL,TOT,1974,14.6
3828,CHE,ALCOHOL,TOT,1975,13.7
3829,CHE,ALCOHOL,TOT,1976,13.3
3830,CHE,ALCOHOL,TOT,1977,13.3
3831,CHE,ALCOHOL,TOT,1978,13.4
3832,CHE,ALCOHOL,TOT,1979,13.3
3833,CHE,ALCOHOL,TOT,1980,13.5
3834,CHE,ALCOHOL,TOT,1981,13.7
3835,CHE,ALCOHOL,TOT,1982,14.0
3836,CHE,ALCOHOL,TOT,1983,13.6
3837,CHE,ALCOHOL,TOT,1984,13.5
3838,CHE,ALCOHOL,TOT,1985,13.5
3839,CHE,ALCOHOL,TOT,1986,13.2
3840,CHE,ALCOHOL,TOT,1987,13.2
3841,CHE,ALCOHOL,TOT,1988,13.2
3842,CHE,ALCOHOL,TOT,1989,13.1
3843,CHE,ALCOHOL,TOT,1990,12.9
3844,CHE,ALCOHOL,TOT,1991,12.9
3845,CHE,ALCOHOL,TOT,1992,12.3
3846,CHE,ALCOHOL,TOT,1993,12.1
3847,CHE,ALCOHOL,TOT,1994,11.8
3848,CHE,ALCOHOL,TOT,1995,11.4
3849,CHE,ALCOHOL,TOT,1996,11.3
3850,CHE,ALCOHOL,TOT,1997,11.2
3851,CHE,ALCOHOL,TOT,1998,11.1
3852,CHE,ALCOHOL,TOT,1999,11.1
3853,CHE,ALCOHOL,TOT,2000,11.2
3854,CHE,ALCOHOL,TOT,2001,11.1
3855,CHE,ALCOHOL,TOT,2002,10.8
3856,CHE,ALCOHOL,TOT,2003,10.8
3857,CHE,ALCOHOL,TOT,2004,10.7
3858,CHE,ALCOHOL,TOT,2005,10.1
3859,CHE,ALCOHOL,TOT,2006,10.2
3860,CHE,ALCOHOL,TOT,2007,10.4
3861,CHE,ALCOHOL,TOT,2008,10.2
3862,CHE,ALCOHOL,TOT,2009,10.1
3863,CHE,ALCOHOL,TOT,2010,10.0
3864,CHE,ALCOHOL,TOT,2011,10.0
3865,CHE,ALCOHOL,TOT,2012,9.9
3866,CHE,ALCOHOL,TOT,2013,9.8
3867,CHE,ALCOHOL,TOT,2014,9.5
3868,CHE,ALCOHOL,TOT,2015,9.5
3869,CHE,ALCOHOL,TOT,2016,9.3
3870,CHE,ALCOHOL,TOT,2017,9.2
3871,TUR,ALCOHOL,TOT,1960,0.9
3872,TUR,ALCOHOL,TOT,1961,0.9
3873,TUR,ALCOHOL,TOT,1962,1.0
3874,TUR,ALCOHOL,TOT,1963,0.8
3875,TUR,ALCOHOL,TOT,1964,0.9
3876,TUR,ALCOHOL,TOT,1965,0.9
3877,TUR,ALCOHOL,TOT,1966,1.0
3878,TUR,ALCOHOL,TOT,1967,1.1
3879,TUR,ALCOHOL,TOT,1968,1.3
3880,TUR,ALCOHOL,TOT,1969,1.1
3881,TUR,ALCOHOL,TOT,1970,1.1
3882,TUR,ALCOHOL,TOT,1971,1.2
3883,TUR,ALCOHOL,TOT,1972,1.3
3884,TUR,ALCOHOL,TOT,1973,1.6
3885,TUR,ALCOHOL,TOT,1974,1.8
3886,TUR,ALCOHOL,TOT,1975,1.8
3887,TUR,ALCOHOL,TOT,1976,2.0
3888,TUR,ALCOHOL,TOT,1977,2.0
3889,TUR,ALCOHOL,TOT,1978,2.0
3890,TUR,ALCOHOL,TOT,1979,2.0
3891,TUR,ALCOHOL,TOT,1980,1.8
3892,TUR,ALCOHOL,TOT,1981,1.6
3893,TUR,ALCOHOL,TOT,1982,1.2
3894,TUR,ALCOHOL,TOT,1983,1.6
3895,TUR,ALCOHOL,TOT,1984,1.7
3896,TUR,ALCOHOL,TOT,1985,1.7
3897,TUR,ALCOHOL,TOT,1986,1.8
3898,TUR,ALCOHOL,TOT,1987,1.3
3899,TUR,ALCOHOL,TOT,1988,1.3
3900,TUR,ALCOHOL,TOT,1989,1.4
3901,TUR,ALCOHOL,TOT,1990,1.4
3902,TUR,ALCOHOL,TOT,1991,1.4
3903,TUR,ALCOHOL,TOT,1992,1.5
3904,TUR,ALCOHOL,TOT,1993,1.6
3905,TUR,ALCOHOL,TOT,1994,1.6
3906,TUR,ALCOHOL,TOT,1995,1.7
3907,TUR,ALCOHOL,TOT,1996,1.6
3908,TUR,ALCOHOL,TOT,1997,1.6
3909,TUR,ALCOHOL,TOT,1998,1.6
3910,TUR,ALCOHOL,TOT,1999,1.6
3911,TUR,ALCOHOL,TOT,2000,1.5
3912,TUR,ALCOHOL,TOT,2001,1.4
3913,TUR,ALCOHOL,TOT,2002,1.4
3914,TUR,ALCOHOL,TOT,2003,1.5
3915,TUR,ALCOHOL,TOT,2004,1.4
3916,TUR,ALCOHOL,TOT,2005,1.3
3917,TUR,ALCOHOL,TOT,2006,1.2
3918,TUR,ALCOHOL,TOT,2007,1.3
3919,TUR,ALCOHOL,TOT,2008,1.5
3920,TUR,ALCOHOL,TOT,2009,1.5
3921,TUR,ALCOHOL,TOT,2010,1.5
3922,TUR,ALCOHOL,TOT,2011,1.5
3923,TUR,ALCOHOL,TOT,2012,1.6
3924,TUR,ALCOHOL,TOT,2013,1.4
3925,TUR,ALCOHOL,TOT,2014,1.5
3926,TUR,ALCOHOL,TOT,2015,1.4
3927,TUR,ALCOHOL,TOT,2016,1.3
3928,TUR,ALCOHOL,TOT,2017,1.4
3929,TUR,ALCOHOL,TOT,2018,1.4
3930,GBR,ALCOHOL,TOT,1961,7.1
3931,GBR,ALCOHOL,TOT,1962,7.1
3932,GBR,ALCOHOL,TOT,1963,7.2
3933,GBR,ALCOHOL,TOT,1964,7.5
3934,GBR,ALCOHOL,TOT,1965,7.4
3935,GBR,ALCOHOL,TOT,1966,7.6
3936,GBR,ALCOHOL,TOT,1967,7.7
3937,GBR,ALCOHOL,TOT,1968,7.9
3938,GBR,ALCOHOL,TOT,1969,8.1
3939,GBR,ALCOHOL,TOT,1970,7.1
3940,GBR,ALCOHOL,TOT,1971,7.4
3941,GBR,ALCOHOL,TOT,1972,7.8
3942,GBR,ALCOHOL,TOT,1973,8.7
3943,GBR,ALCOHOL,TOT,1974,9.1
3944,GBR,ALCOHOL,TOT,1975,9.0
3945,GBR,ALCOHOL,TOT,1976,9.3
3946,GBR,ALCOHOL,TOT,1977,8.8
3947,GBR,ALCOHOL,TOT,1978,9.4
3948,GBR,ALCOHOL,TOT,1979,9.8
3949,GBR,ALCOHOL,TOT,1980,9.4
3950,GBR,ALCOHOL,TOT,1981,9.1
3951,GBR,ALCOHOL,TOT,1982,8.8
3952,GBR,ALCOHOL,TOT,1983,9.1
3953,GBR,ALCOHOL,TOT,1984,9.2
3954,GBR,ALCOHOL,TOT,1985,9.3
3955,GBR,ALCOHOL,TOT,1986,9.3
3956,GBR,ALCOHOL,TOT,1987,9.5
3957,GBR,ALCOHOL,TOT,1988,9.8
3958,GBR,ALCOHOL,TOT,1989,9.8
3959,GBR,ALCOHOL,TOT,1990,9.8
3960,GBR,ALCOHOL,TOT,1991,9.4
3961,GBR,ALCOHOL,TOT,1992,9.3
3962,GBR,ALCOHOL,TOT,1993,9.3
3963,GBR,ALCOHOL,TOT,1994,9.6
3964,GBR,ALCOHOL,TOT,1995,9.3
3965,GBR,ALCOHOL,TOT,1996,9.8
3966,GBR,ALCOHOL,TOT,1997,10.0
3967,GBR,ALCOHOL,TOT,1998,9.8
3968,GBR,ALCOHOL,TOT,1999,10.3
3969,GBR,ALCOHOL,TOT,2000,10.4
3970,GBR,ALCOHOL,TOT,2001,10.8
3971,GBR,ALCOHOL,TOT,2002,11.1
3972,GBR,ALCOHOL,TOT,2003,11.3
3973,GBR,ALCOHOL,TOT,2004,11.6
3974,GBR,ALCOHOL,TOT,2005,11.4
3975,GBR,ALCOHOL,TOT,2006,11.0
3976,GBR,ALCOHOL,TOT,2007,11.1
3977,GBR,ALCOHOL,TOT,2008,10.8
3978,GBR,ALCOHOL,TOT,2009,10.1
3979,GBR,ALCOHOL,TOT,2010,10.1
3980,GBR,ALCOHOL,TOT,2011,9.9
3981,GBR,ALCOHOL,TOT,2012,9.6
3982,GBR,ALCOHOL,TOT,2013,9.4
3983,GBR,ALCOHOL,TOT,2014,9.4
3984,GBR,ALCOHOL,TOT,2015,9.5
3985,GBR,ALCOHOL,TOT,2016,9.5
3986,GBR,ALCOHOL,TOT,2017,9.7
3987,USA,ALCOHOL,TOT,1960,7.8
3988,USA,ALCOHOL,TOT,1961,7.8
3989,USA,ALCOHOL,TOT,1962,8.0
3990,USA,ALCOHOL,TOT,1963,8.1
3991,USA,ALCOHOL,TOT,1964,8.4
3992,USA,ALCOHOL,TOT,1965,8.6
3993,USA,ALCOHOL,TOT,1966,8.8
3994,USA,ALCOHOL,TOT,1967,9.0
3995,USA,ALCOHOL,TOT,1968,9.3
3996,USA,ALCOHOL,TOT,1969,9.5
3997,USA,ALCOHOL,TOT,1970,9.5
3998,USA,ALCOHOL,TOT,1971,9.8
3999,USA,ALCOHOL,TOT,1972,9.6
4000,USA,ALCOHOL,TOT,1973,9.8
4001,USA,ALCOHOL,TOT,1974,10.0
4002,USA,ALCOHOL,TOT,1975,10.1
4003,USA,ALCOHOL,TOT,1976,10.1
4004,USA,ALCOHOL,TOT,1977,9.8
4005,USA,ALCOHOL,TOT,1978,10.1
4006,USA,ALCOHOL,TOT,1979,10.2
4007,USA,ALCOHOL,TOT,1980,10.4
4008,USA,ALCOHOL,TOT,1981,10.4
4009,USA,ALCOHOL,TOT,1982,10.3
4010,USA,ALCOHOL,TOT,1983,10.2
4011,USA,ALCOHOL,TOT,1984,10.0
4012,USA,ALCOHOL,TOT,1985,9.9
4013,USA,ALCOHOL,TOT,1986,9.8
4014,USA,ALCOHOL,TOT,1987,9.7
4015,USA,ALCOHOL,TOT,1988,9.4
4016,USA,ALCOHOL,TOT,1989,9.2
4017,USA,ALCOHOL,TOT,1990,9.3
4018,USA,ALCOHOL,TOT,1991,8.7
4019,USA,ALCOHOL,TOT,1992,8.7
4020,USA,ALCOHOL,TOT,1993,8.4
4021,USA,ALCOHOL,TOT,1994,8.3
4022,USA,ALCOHOL,TOT,1995,8.1
4023,USA,ALCOHOL,TOT,1996,8.2
4024,USA,ALCOHOL,TOT,1997,8.1
4025,USA,ALCOHOL,TOT,1998,8.1
4026,USA,ALCOHOL,TOT,1999,8.2
4027,USA,ALCOHOL,TOT,2000,8.3
4028,USA,ALCOHOL,TOT,2001,8.3
4029,USA,ALCOHOL,TOT,2002,8.3
4030,USA,ALCOHOL,TOT,2003,8.4
4031,USA,ALCOHOL,TOT,2004,8.5
4032,USA,ALCOHOL,TOT,2005,8.5
4033,USA,ALCOHOL,TOT,2006,8.6
4034,USA,ALCOHOL,TOT,2007,8.7
4035,USA,ALCOHOL,TOT,2008,8.7
4036,USA,ALCOHOL,TOT,2009,8.7
4037,USA,ALCOHOL,TOT,2010,8.6
4038,USA,ALCOHOL,TOT,2011,8.7
4039,USA,ALCOHOL,TOT,2012,8.9
4040,USA,ALCOHOL,TOT,2013,8.8
4041,USA,ALCOHOL,TOT,2014,8.8
4042,USA,ALCOHOL,TOT,2015,8.9
4043,USA,ALCOHOL,TOT,2016,8.9
4044,BRA,ALCOHOL,TOT,1963,1.9
4045,BRA,ALCOHOL,TOT,1964,2.0
4046,BRA,ALCOHOL,TOT,1965,1.9
4047,BRA,ALCOHOL,TOT,1966,1.8
4048,BRA,ALCOHOL,TOT,1967,2.6
4049,BRA,ALCOHOL,TOT,1968,2.7
4050,BRA,ALCOHOL,TOT,1969,2.7
4051,BRA,ALCOHOL,TOT,1970,3.1
4052,BRA,ALCOHOL,TOT,1971,2.9
4053,BRA,ALCOHOL,TOT,1972,2.9
4054,BRA,ALCOHOL,TOT,1973,3.0
4055,BRA,ALCOHOL,TOT,1974,3.0
4056,BRA,ALCOHOL,TOT,1975,3.0
4057,BRA,ALCOHOL,TOT,1976,3.1
4058,BRA,ALCOHOL,TOT,1977,3.2
4059,BRA,ALCOHOL,TOT,1978,3.5
4060,BRA,ALCOHOL,TOT,1979,3.5
4061,BRA,ALCOHOL,TOT,1980,3.5
4062,BRA,ALCOHOL,TOT,1981,3.4
4063,BRA,ALCOHOL,TOT,1982,3.6
4064,BRA,ALCOHOL,TOT,1983,3.6
4065,BRA,ALCOHOL,TOT,1984,3.7
4066,BRA,ALCOHOL,TOT,1985,3.8
4067,BRA,ALCOHOL,TOT,1986,4.1
4068,BRA,ALCOHOL,TOT,1987,4.0
4069,BRA,ALCOHOL,TOT,1988,4.1
4070,BRA,ALCOHOL,TOT,1989,5.5
4071,BRA,ALCOHOL,TOT,1990,5.3
4072,BRA,ALCOHOL,TOT,1991,5.5
4073,BRA,ALCOHOL,TOT,1992,5.3
4074,BRA,ALCOHOL,TOT,1993,4.9
4075,BRA,ALCOHOL,TOT,1994,5.2
4076,BRA,ALCOHOL,TOT,1995,5.9
4077,BRA,ALCOHOL,TOT,1996,6.0
4078,BRA,ALCOHOL,TOT,1997,5.9
4079,BRA,ALCOHOL,TOT,1998,5.7
4080,BRA,ALCOHOL,TOT,1999,5.9
4081,BRA,ALCOHOL,TOT,2000,7.4
4082,BRA,ALCOHOL,TOT,2001,7.2
4083,BRA,ALCOHOL,TOT,2002,7.1
4084,BRA,ALCOHOL,TOT,2003,6.9
4085,BRA,ALCOHOL,TOT,2004,6.8
4086,BRA,ALCOHOL,TOT,2005,6.9
4087,BRA,ALCOHOL,TOT,2006,7.0
4088,BRA,ALCOHOL,TOT,2007,7.1
4089,BRA,ALCOHOL,TOT,2008,7.1
4090,BRA,ALCOHOL,TOT,2009,7.2
4091,BRA,ALCOHOL,TOT,2010,7.4
4092,BRA,ALCOHOL,TOT,2011,7.4
4093,BRA,ALCOHOL,TOT,2012,7.3
4094,BRA,ALCOHOL,TOT,2013,7.1
4095,BRA,ALCOHOL,TOT,2014,7.2
4096,BRA,ALCOHOL,TOT,2015,7.0
4097,BRA,ALCOHOL,TOT,2016,6.3
4098,CHL,ALCOHOL,TOT,1963,11.1
4099,CHL,ALCOHOL,TOT,1964,11.6
4100,CHL,ALCOHOL,TOT,1965,9.7
4101,CHL,ALCOHOL,TOT,1966,11.3
4102,CHL,ALCOHOL,TOT,1967,11.4
4103,CHL,ALCOHOL,TOT,1968,11.6
4104,CHL,ALCOHOL,TOT,1969,9.1
4105,CHL,ALCOHOL,TOT,1970,9.2
4106,CHL,ALCOHOL,TOT,1971,11.6
4107,CHL,ALCOHOL,TOT,1972,12.8
4108,CHL,ALCOHOL,TOT,1973,11.1
4109,CHL,ALCOHOL,TOT,1974,10.0
4110,CHL,ALCOHOL,TOT,1975,8.6
4111,CHL,ALCOHOL,TOT,1976,9.7
4112,CHL,ALCOHOL,TOT,1977,10.3
4113,CHL,ALCOHOL,TOT,1978,9.8
4114,CHL,ALCOHOL,TOT,1979,10.3
4115,CHL,ALCOHOL,TOT,1980,10.2
4116,CHL,ALCOHOL,TOT,1981,9.7
4117,CHL,ALCOHOL,TOT,1982,12.6
4118,CHL,ALCOHOL,TOT,1983,10.0
4119,CHL,ALCOHOL,TOT,1984,10.0
4120,CHL,ALCOHOL,TOT,1985,9.7
4121,CHL,ALCOHOL,TOT,1986,8.9
4122,CHL,ALCOHOL,TOT,1987,9.5
4123,CHL,ALCOHOL,TOT,1988,9.5
4124,CHL,ALCOHOL,TOT,1989,8.7
4125,CHL,ALCOHOL,TOT,1990,8.6
4126,CHL,ALCOHOL,TOT,1991,8.0
4127,CHL,ALCOHOL,TOT,1992,7.8
4128,CHL,ALCOHOL,TOT,1993,7.7
4129,CHL,ALCOHOL,TOT,1994,7.7
4130,CHL,ALCOHOL,TOT,1995,8.3
4131,CHL,ALCOHOL,TOT,1996,7.4
4132,CHL,ALCOHOL,TOT,1997,6.6
4133,CHL,ALCOHOL,TOT,1998,7.3
4134,CHL,ALCOHOL,TOT,1999,7.6
4135,CHL,ALCOHOL,TOT,2000,6.2
4136,CHL,ALCOHOL,TOT,2001,6.2
4137,CHL,ALCOHOL,TOT,2002,5.5
4138,CHL,ALCOHOL,TOT,2003,6.5
4139,CHL,ALCOHOL,TOT,2004,6.8
4140,CHL,ALCOHOL,TOT,2005,7.2
4141,CHL,ALCOHOL,TOT,2006,6.9
4142,CHL,ALCOHOL,TOT,2007,7.4
4143,CHL,ALCOHOL,TOT,2008,7.4
4144,CHL,ALCOHOL,TOT,2009,7.2
4145,CHL,ALCOHOL,TOT,2010,7.6
4146,CHL,ALCOHOL,TOT,2011,7.1
4147,CHL,ALCOHOL,TOT,2012,8.3
4148,CHL,ALCOHOL,TOT,2013,7.2
4149,CHL,ALCOHOL,TOT,2014,7.9
4150,CHL,ALCOHOL,TOT,2015,7.9
4151,CHL,ALCOHOL,TOT,2016,7.9
4152,CHN,ALCOHOL,TOT,1961,0.5
4153,CHN,ALCOHOL,TOT,1962,0.6
4154,CHN,ALCOHOL,TOT,1963,0.6
4155,CHN,ALCOHOL,TOT,1964,0.6
4156,CHN,ALCOHOL,TOT,1965,0.7
4157,CHN,ALCOHOL,TOT,1966,0.8
4158,CHN,ALCOHOL,TOT,1967,0.7
4159,CHN,ALCOHOL,TOT,1968,0.8
4160,CHN,ALCOHOL,TOT,1969,0.8
4161,CHN,ALCOHOL,TOT,1970,0.8
4162,CHN,ALCOHOL,TOT,1971,0.8
4163,CHN,ALCOHOL,TOT,1972,0.9
4164,CHN,ALCOHOL,TOT,1973,1.0
4165,CHN,ALCOHOL,TOT,1974,1.1
4166,CHN,ALCOHOL,TOT,1975,1.2
4167,CHN,ALCOHOL,TOT,1976,1.3
4168,CHN,ALCOHOL,TOT,1977,1.2
4169,CHN,ALCOHOL,TOT,1978,1.2
4170,CHN,ALCOHOL,TOT,1979,1.3
4171,CHN,ALCOHOL,TOT,1980,1.7
4172,CHN,ALCOHOL,TOT,1981,2.0
4173,CHN,ALCOHOL,TOT,1982,2.3
4174,CHN,ALCOHOL,TOT,1983,2.0
4175,CHN,ALCOHOL,TOT,1984,2.3
4176,CHN,ALCOHOL,TOT,1985,2.0
4177,CHN,ALCOHOL,TOT,1986,2.5
4178,CHN,ALCOHOL,TOT,1987,3.2
4179,CHN,ALCOHOL,TOT,1988,3.3
4180,CHN,ALCOHOL,TOT,1989,3.3
4181,CHN,ALCOHOL,TOT,1990,3.4
4182,CHN,ALCOHOL,TOT,1991,3.7
4183,CHN,ALCOHOL,TOT,1992,3.8
4184,CHN,ALCOHOL,TOT,1993,4.1
4185,CHN,ALCOHOL,TOT,1994,4.3
4186,CHN,ALCOHOL,TOT,1995,4.8
4187,CHN,ALCOHOL,TOT,1996,5.1
4188,CHN,ALCOHOL,TOT,1997,5.0
4189,CHN,ALCOHOL,TOT,1998,5.0
4190,CHN,ALCOHOL,TOT,1999,5.1
4191,CHN,ALCOHOL,TOT,2000,3.1
4192,CHN,ALCOHOL,TOT,2001,2.9
4193,CHN,ALCOHOL,TOT,2002,3.0
4194,CHN,ALCOHOL,TOT,2003,3.0
4195,CHN,ALCOHOL,TOT,2004,3.1
4196,CHN,ALCOHOL,TOT,2005,2.9
4197,CHN,ALCOHOL,TOT,2006,3.3
4198,CHN,ALCOHOL,TOT,2007,3.9
4199,CHN,ALCOHOL,TOT,2008,4.3
4200,CHN,ALCOHOL,TOT,2009,4.9
4201,CHN,ALCOHOL,TOT,2010,5.8
4202,CHN,ALCOHOL,TOT,2011,5.7
4203,CHN,ALCOHOL,TOT,2012,5.7
4204,CHN,ALCOHOL,TOT,2013,5.8
4205,CHN,ALCOHOL,TOT,2014,5.8
4206,CHN,ALCOHOL,TOT,2015,5.7
4207,CHN,ALCOHOL,TOT,2016,5.7
4208,EST,ALCOHOL,TOT,1990,9.8
4209,EST,ALCOHOL,TOT,1991,9.1
4210,EST,ALCOHOL,TOT,1992,7.8
4211,EST,ALCOHOL,TOT,1993,8.1
4212,EST,ALCOHOL,TOT,1994,8.2
4213,EST,ALCOHOL,TOT,1995,8.3
4214,EST,ALCOHOL,TOT,1996,8.0
4215,EST,ALCOHOL,TOT,1997,8.3
4216,EST,ALCOHOL,TOT,1998,8.0
4217,EST,ALCOHOL,TOT,1999,8.9
4218,EST,ALCOHOL,TOT,2000,7.9
4219,EST,ALCOHOL,TOT,2001,9.2
4220,EST,ALCOHOL,TOT,2002,12.0
4221,EST,ALCOHOL,TOT,2003,11.8
4222,EST,ALCOHOL,TOT,2004,11.5
4223,EST,ALCOHOL,TOT,2005,13.0
4224,EST,ALCOHOL,TOT,2006,13.4
4225,EST,ALCOHOL,TOT,2007,14.8
4226,EST,ALCOHOL,TOT,2008,14.2
4227,EST,ALCOHOL,TOT,2009,11.9
4228,EST,ALCOHOL,TOT,2010,11.4
4229,EST,ALCOHOL,TOT,2011,12.0
4230,EST,ALCOHOL,TOT,2012,12.1
4231,EST,ALCOHOL,TOT,2013,11.9
4232,EST,ALCOHOL,TOT,2014,11.1
4233,EST,ALCOHOL,TOT,2015,10.6
4234,EST,ALCOHOL,TOT,2016,10.2
4235,EST,ALCOHOL,TOT,2017,10.3
4236,IND,ALCOHOL,TOT,1961,0.7
4237,IND,ALCOHOL,TOT,1962,0.7
4238,IND,ALCOHOL,TOT,1963,0.6
4239,IND,ALCOHOL,TOT,1964,0.7
4240,IND,ALCOHOL,TOT,1965,0.6
4241,IND,ALCOHOL,TOT,1966,0.7
4242,IND,ALCOHOL,TOT,1967,0.7
4243,IND,ALCOHOL,TOT,1968,0.8
4244,IND,ALCOHOL,TOT,1969,0.9
4245,IND,ALCOHOL,TOT,1970,0.8
4246,IND,ALCOHOL,TOT,1971,0.9
4247,IND,ALCOHOL,TOT,1972,0.9
4248,IND,ALCOHOL,TOT,1973,1.0
4249,IND,ALCOHOL,TOT,1974,1.0
4250,IND,ALCOHOL,TOT,1975,1.0
4251,IND,ALCOHOL,TOT,1976,1.1
4252,IND,ALCOHOL,TOT,1977,1.1
4253,IND,ALCOHOL,TOT,1978,1.1
4254,IND,ALCOHOL,TOT,1979,1.1
4255,IND,ALCOHOL,TOT,1980,1.1
4256,IND,ALCOHOL,TOT,1981,1.1
4257,IND,ALCOHOL,TOT,1982,1.2
4258,IND,ALCOHOL,TOT,1983,1.2
4259,IND,ALCOHOL,TOT,1984,1.2
4260,IND,ALCOHOL,TOT,1985,1.3
4261,IND,ALCOHOL,TOT,1986,1.3
4262,IND,ALCOHOL,TOT,1987,1.5
4263,IND,ALCOHOL,TOT,1988,1.6
4264,IND,ALCOHOL,TOT,1989,1.7
4265,IND,ALCOHOL,TOT,1990,1.7
4266,IND,ALCOHOL,TOT,1991,1.8
4267,IND,ALCOHOL,TOT,1992,1.6
4268,IND,ALCOHOL,TOT,1993,1.8
4269,IND,ALCOHOL,TOT,1994,1.7
4270,IND,ALCOHOL,TOT,1995,1.8
4271,IND,ALCOHOL,TOT,1996,2.4
4272,IND,ALCOHOL,TOT,1997,1.9
4273,IND,ALCOHOL,TOT,1998,1.8
4274,IND,ALCOHOL,TOT,1999,2.2
4275,IND,ALCOHOL,TOT,2000,0.9
4276,IND,ALCOHOL,TOT,2001,1.0
4277,IND,ALCOHOL,TOT,2002,1.1
4278,IND,ALCOHOL,TOT,2003,1.2
4279,IND,ALCOHOL,TOT,2004,1.2
4280,IND,ALCOHOL,TOT,2005,1.3
4281,IND,ALCOHOL,TOT,2006,1.4
4282,IND,ALCOHOL,TOT,2007,1.6
4283,IND,ALCOHOL,TOT,2008,1.9
4284,IND,ALCOHOL,TOT,2009,2.5
4285,IND,ALCOHOL,TOT,2010,2.7
4286,IND,ALCOHOL,TOT,2011,3.0
4287,IND,ALCOHOL,TOT,2012,3.1
4288,IND,ALCOHOL,TOT,2013,3.1
4289,IND,ALCOHOL,TOT,2014,3.0
4290,IND,ALCOHOL,TOT,2015,3.0
4291,IND,ALCOHOL,TOT,2016,3.0
4292,IDN,ALCOHOL,TOT,1961,0.0
4293,IDN,ALCOHOL,TOT,1962,0.0
4294,IDN,ALCOHOL,TOT,1963,0.0
4295,IDN,ALCOHOL,TOT,1964,0.0
4296,IDN,ALCOHOL,TOT,1965,0.0
4297,IDN,ALCOHOL,TOT,1966,0.0
4298,IDN,ALCOHOL,TOT,1967,0.0
4299,IDN,ALCOHOL,TOT,1968,0.0
4300,IDN,ALCOHOL,TOT,1969,0.0
4301,IDN,ALCOHOL,TOT,1970,0.1
4302,IDN,ALCOHOL,TOT,1971,0.1
4303,IDN,ALCOHOL,TOT,1972,0.1
4304,IDN,ALCOHOL,TOT,1973,0.1
4305,IDN,ALCOHOL,TOT,1974,0.1
4306,IDN,ALCOHOL,TOT,1975,0.1
4307,IDN,ALCOHOL,TOT,1976,0.1
4308,IDN,ALCOHOL,TOT,1977,0.1
4309,IDN,ALCOHOL,TOT,1978,0.1
4310,IDN,ALCOHOL,TOT,1979,0.1
4311,IDN,ALCOHOL,TOT,1980,0.1
4312,IDN,ALCOHOL,TOT,1981,0.1
4313,IDN,ALCOHOL,TOT,1982,0.1
4314,IDN,ALCOHOL,TOT,1983,0.1
4315,IDN,ALCOHOL,TOT,1984,0.1
4316,IDN,ALCOHOL,TOT,1985,0.1
4317,IDN,ALCOHOL,TOT,1986,0.1
4318,IDN,ALCOHOL,TOT,1987,0.1
4319,IDN,ALCOHOL,TOT,1988,0.1
4320,IDN,ALCOHOL,TOT,1989,0.1
4321,IDN,ALCOHOL,TOT,1990,0.1
4322,IDN,ALCOHOL,TOT,1991,0.1
4323,IDN,ALCOHOL,TOT,1992,0.1
4324,IDN,ALCOHOL,TOT,1993,0.1
4325,IDN,ALCOHOL,TOT,1994,0.1
4326,IDN,ALCOHOL,TOT,1995,0.1
4327,IDN,ALCOHOL,TOT,1996,0.1
4328,IDN,ALCOHOL,TOT,1997,0.1
4329,IDN,ALCOHOL,TOT,1998,0.1
4330,IDN,ALCOHOL,TOT,1999,0.1
4331,IDN,ALCOHOL,TOT,2000,0.1
4332,IDN,ALCOHOL,TOT,2001,0.1
4333,IDN,ALCOHOL,TOT,2002,0.1
4334,IDN,ALCOHOL,TOT,2003,0.1
4335,IDN,ALCOHOL,TOT,2004,0.1
4336,IDN,ALCOHOL,TOT,2005,0.1
4337,IDN,ALCOHOL,TOT,2006,0.1
4338,IDN,ALCOHOL,TOT,2007,0.1
4339,IDN,ALCOHOL,TOT,2008,0.1
4340,IDN,ALCOHOL,TOT,2009,0.1
4341,IDN,ALCOHOL,TOT,2010,0.1
4342,IDN,ALCOHOL,TOT,2011,0.1
4343,IDN,ALCOHOL,TOT,2012,0.1
4344,IDN,ALCOHOL,TOT,2013,0.3
4345,IDN,ALCOHOL,TOT,2014,0.3
4346,IDN,ALCOHOL,TOT,2015,0.3
4347,IDN,ALCOHOL,TOT,2016,0.3
4348,ISR,ALCOHOL,TOT,1961,4.4
4349,ISR,ALCOHOL,TOT,1962,4.8
4350,ISR,ALCOHOL,TOT,1963,4.1
4351,ISR,ALCOHOL,TOT,1964,5.1
4352,ISR,ALCOHOL,TOT,1965,4.9
4353,ISR,ALCOHOL,TOT,1966,4.4
4354,ISR,ALCOHOL,TOT,1967,4.5
4355,ISR,ALCOHOL,TOT,1968,4.5
4356,ISR,ALCOHOL,TOT,1969,4.9
4357,ISR,ALCOHOL,TOT,1970,4.6
4358,ISR,ALCOHOL,TOT,1971,4.7
4359,ISR,ALCOHOL,TOT,1972,4.9
4360,ISR,ALCOHOL,TOT,1973,4.9
4361,ISR,ALCOHOL,TOT,1974,4.7
4362,ISR,ALCOHOL,TOT,1975,5.1
4363,ISR,ALCOHOL,TOT,1976,5.0
4364,ISR,ALCOHOL,TOT,1977,3.9
4365,ISR,ALCOHOL,TOT,1978,3.5
4366,ISR,ALCOHOL,TOT,1979,3.1
4367,ISR,ALCOHOL,TOT,1980,2.9
4368,ISR,ALCOHOL,TOT,1981,2.8
4369,ISR,ALCOHOL,TOT,1982,2.7
4370,ISR,ALCOHOL,TOT,1983,2.8
4371,ISR,ALCOHOL,TOT,1984,2.7
4372,ISR,ALCOHOL,TOT,1985,2.7
4373,ISR,ALCOHOL,TOT,1986,2.3
4374,ISR,ALCOHOL,TOT,1987,2.3
4375,ISR,ALCOHOL,TOT,1988,2.2
4376,ISR,ALCOHOL,TOT,1989,2.0
4377,ISR,ALCOHOL,TOT,1990,1.8
4378,ISR,ALCOHOL,TOT,1991,1.7
4379,ISR,ALCOHOL,TOT,1992,1.8
4380,ISR,ALCOHOL,TOT,1993,2.2
4381,ISR,ALCOHOL,TOT,1994,1.7
4382,ISR,ALCOHOL,TOT,1995,1.5
4383,ISR,ALCOHOL,TOT,1996,1.6
4384,ISR,ALCOHOL,TOT,1997,2.0
4385,ISR,ALCOHOL,TOT,1998,2.1
4386,ISR,ALCOHOL,TOT,1999,2.0
4387,ISR,ALCOHOL,TOT,2000,2.6
4388,ISR,ALCOHOL,TOT,2001,2.6
4389,ISR,ALCOHOL,TOT,2002,2.6
4390,ISR,ALCOHOL,TOT,2003,2.4
4391,ISR,ALCOHOL,TOT,2004,2.3
4392,ISR,ALCOHOL,TOT,2005,2.4
4393,ISR,ALCOHOL,TOT,2006,2.2
4394,ISR,ALCOHOL,TOT,2007,2.3
4395,ISR,ALCOHOL,TOT,2008,2.5
4396,ISR,ALCOHOL,TOT,2009,2.6
4397,ISR,ALCOHOL,TOT,2010,2.6
4398,ISR,ALCOHOL,TOT,2011,2.7
4399,ISR,ALCOHOL,TOT,2012,2.8
4400,ISR,ALCOHOL,TOT,2013,2.9
4401,ISR,ALCOHOL,TOT,2014,2.7
4402,ISR,ALCOHOL,TOT,2015,2.6
4403,ISR,ALCOHOL,TOT,2016,2.6
4404,RUS,ALCOHOL,TOT,1990,16.5
4405,RUS,ALCOHOL,TOT,1991,16.1
4406,RUS,ALCOHOL,TOT,1992,18.5
4407,RUS,ALCOHOL,TOT,1993,21.7
4408,RUS,ALCOHOL,TOT,1994,23.6
4409,RUS,ALCOHOL,TOT,1995,21.0
4410,RUS,ALCOHOL,TOT,1996,19.2
4411,RUS,ALCOHOL,TOT,1997,17.5
4412,RUS,ALCOHOL,TOT,1998,16.9
4413,RUS,ALCOHOL,TOT,1999,17.5
4414,RUS,ALCOHOL,TOT,2000,18.8
4415,RUS,ALCOHOL,TOT,2001,19.4
4416,RUS,ALCOHOL,TOT,2002,19.8
4417,RUS,ALCOHOL,TOT,2003,19.8
4418,RUS,ALCOHOL,TOT,2004,19.3
4419,RUS,ALCOHOL,TOT,2008,18.0
4420,RUS,ALCOHOL,TOT,2009,16.1
4421,RUS,ALCOHOL,TOT,2010,15.8
4422,RUS,ALCOHOL,TOT,2011,15.2
4423,RUS,ALCOHOL,TOT,2012,14.6
4424,RUS,ALCOHOL,TOT,2013,13.9
4425,RUS,ALCOHOL,TOT,2014,13.8
4426,RUS,ALCOHOL,TOT,2015,13.0
4427,RUS,ALCOHOL,TOT,2016,12.1
4428,RUS,ALCOHOL,TOT,2017,11.1
4429,SVN,ALCOHOL,TOT,1981,16.9
4430,SVN,ALCOHOL,TOT,1982,19.5
4431,SVN,ALCOHOL,TOT,1983,17.3
4432,SVN,ALCOHOL,TOT,1984,17.2
4433,SVN,ALCOHOL,TOT,1985,15.1
4434,SVN,ALCOHOL,TOT,1986,18.1
4435,SVN,ALCOHOL,TOT,1987,16.6
4436,SVN,ALCOHOL,TOT,1988,15.0
4437,SVN,ALCOHOL,TOT,1989,13.0
4438,SVN,ALCOHOL,TOT,1990,13.8
4439,SVN,ALCOHOL,TOT,1991,13.2
4440,SVN,ALCOHOL,TOT,1992,13.6
4441,SVN,ALCOHOL,TOT,1993,14.3
4442,SVN,ALCOHOL,TOT,1994,13.4
4443,SVN,ALCOHOL,TOT,1995,13.4
4444,SVN,ALCOHOL,TOT,1996,12.0
4445,SVN,ALCOHOL,TOT,1997,11.2
4446,SVN,ALCOHOL,TOT,1998,8.3
4447,SVN,ALCOHOL,TOT,1999,10.6
4448,SVN,ALCOHOL,TOT,2000,11.2
4449,SVN,ALCOHOL,TOT,2001,13.0
4450,SVN,ALCOHOL,TOT,2002,11.6
4451,SVN,ALCOHOL,TOT,2003,11.2
4452,SVN,ALCOHOL,TOT,2004,13.5
4453,SVN,ALCOHOL,TOT,2005,10.3
4454,SVN,ALCOHOL,TOT,2006,12.2
4455,SVN,ALCOHOL,TOT,2007,11.0
4456,SVN,ALCOHOL,TOT,2008,11.0
4457,SVN,ALCOHOL,TOT,2009,10.5
4458,SVN,ALCOHOL,TOT,2010,10.3
4459,SVN,ALCOHOL,TOT,2011,10.6
4460,SVN,ALCOHOL,TOT,2012,11.0
4461,SVN,ALCOHOL,TOT,2013,9.5
4462,SVN,ALCOHOL,TOT,2014,10.9
4463,SVN,ALCOHOL,TOT,2015,11.5
4464,SVN,ALCOHOL,TOT,2016,10.5
4465,SVN,ALCOHOL,TOT,2017,10.1
4466,ZAF,ALCOHOL,TOT,1961,7.4
4467,ZAF,ALCOHOL,TOT,1962,8.1
4468,ZAF,ALCOHOL,TOT,1963,5.4
4469,ZAF,ALCOHOL,TOT,1964,5.9
4470,ZAF,ALCOHOL,TOT,1965,6.4
4471,ZAF,ALCOHOL,TOT,1966,6.6
4472,ZAF,ALCOHOL,TOT,1967,6.7
4473,ZAF,ALCOHOL,TOT,1968,6.9
4474,ZAF,ALCOHOL,TOT,1969,7.2
4475,ZAF,ALCOHOL,TOT,1970,7.4
4476,ZAF,ALCOHOL,TOT,1971,7.3
4477,ZAF,ALCOHOL,TOT,1972,7.5
4478,ZAF,ALCOHOL,TOT,1973,8.2
4479,ZAF,ALCOHOL,TOT,1974,8.7
4480,ZAF,ALCOHOL,TOT,1975,8.4
4481,ZAF,ALCOHOL,TOT,1976,7.9
4482,ZAF,ALCOHOL,TOT,1977,7.5
4483,ZAF,ALCOHOL,TOT,1978,7.5
4484,ZAF,ALCOHOL,TOT,1979,8.2
4485,ZAF,ALCOHOL,TOT,1980,8.6
4486,ZAF,ALCOHOL,TOT,1981,8.8
4487,ZAF,ALCOHOL,TOT,1982,8.6
4488,ZAF,ALCOHOL,TOT,1983,8.5
4489,ZAF,ALCOHOL,TOT,1984,8.8
4490,ZAF,ALCOHOL,TOT,1985,8.4
4491,ZAF,ALCOHOL,TOT,1986,8.9
4492,ZAF,ALCOHOL,TOT,1987,9.0
4493,ZAF,ALCOHOL,TOT,1988,9.2
4494,ZAF,ALCOHOL,TOT,1989,9.2
4495,ZAF,ALCOHOL,TOT,1990,9.2
4496,ZAF,ALCOHOL,TOT,1991,9.0
4497,ZAF,ALCOHOL,TOT,1992,9.1
4498,ZAF,ALCOHOL,TOT,1993,8.8
4499,ZAF,ALCOHOL,TOT,1994,9.2
4500,ZAF,ALCOHOL,TOT,1995,9.0
4501,ZAF,ALCOHOL,TOT,1996,9.1
4502,ZAF,ALCOHOL,TOT,1997,9.2
4503,ZAF,ALCOHOL,TOT,1998,8.8
4504,ZAF,ALCOHOL,TOT,1999,8.5
4505,ZAF,ALCOHOL,TOT,2000,8.9
4506,ZAF,ALCOHOL,TOT,2001,8.7
4507,ZAF,ALCOHOL,TOT,2002,8.4
4508,ZAF,ALCOHOL,TOT,2003,8.2
4509,ZAF,ALCOHOL,TOT,2004,8.0
4510,ZAF,ALCOHOL,TOT,2005,8.9
4511,ZAF,ALCOHOL,TOT,2006,8.8
4512,ZAF,ALCOHOL,TOT,2007,8.8
4513,ZAF,ALCOHOL,TOT,2008,8.6
4514,ZAF,ALCOHOL,TOT,2009,8.0
4515,ZAF,ALCOHOL,TOT,2010,7.3
4516,ZAF,ALCOHOL,TOT,2011,7.3
4517,ZAF,ALCOHOL,TOT,2012,7.3
4518,ZAF,ALCOHOL,TOT,2013,7.2
4519,ZAF,ALCOHOL,TOT,2014,7.2
4520,ZAF,ALCOHOL,TOT,2015,7.1
4521,ZAF,ALCOHOL,TOT,2016,7.1
4522,COL,ALCOHOL,TOT,1961,4.5
4523,COL,ALCOHOL,TOT,1962,4.5
4524,COL,ALCOHOL,TOT,1963,4.7
4525,COL,ALCOHOL,TOT,1964,4.5
4526,COL,ALCOHOL,TOT,1965,4.3
4527,COL,ALCOHOL,TOT,1966,4.0
4528,COL,ALCOHOL,TOT,1967,3.5
4529,COL,ALCOHOL,TOT,1968,3.5
4530,COL,ALCOHOL,TOT,1969,4.0
4531,COL,ALCOHOL,TOT,1970,3.7
4532,COL,ALCOHOL,TOT,1971,3.9
4533,COL,ALCOHOL,TOT,1972,3.9
4534,COL,ALCOHOL,TOT,1973,4.1
4535,COL,ALCOHOL,TOT,1974,4.5
4536,COL,ALCOHOL,TOT,1975,4.2
4537,COL,ALCOHOL,TOT,1976,4.7
4538,COL,ALCOHOL,TOT,1977,4.8
4539,COL,ALCOHOL,TOT,1978,5.0
4540,COL,ALCOHOL,TOT,1979,4.5
4541,COL,ALCOHOL,TOT,1980,6.2
4542,COL,ALCOHOL,TOT,1981,6.3
4543,COL,ALCOHOL,TOT,1982,6.2
4544,COL,ALCOHOL,TOT,1983,6.3
4545,COL,ALCOHOL,TOT,1984,6.2
4546,COL,ALCOHOL,TOT,1985,6.3
4547,COL,ALCOHOL,TOT,1986,6.6
4548,COL,ALCOHOL,TOT,1987,6.8
4549,COL,ALCOHOL,TOT,1988,7.2
4550,COL,ALCOHOL,TOT,1989,7.0
4551,COL,ALCOHOL,TOT,1990,7.0
4552,COL,ALCOHOL,TOT,1991,7.3
4553,COL,ALCOHOL,TOT,1992,6.2
4554,COL,ALCOHOL,TOT,1993,6.7
4555,COL,ALCOHOL,TOT,1994,6.8
4556,COL,ALCOHOL,TOT,1995,7.0
4557,COL,ALCOHOL,TOT,1996,6.7
4558,COL,ALCOHOL,TOT,1997,6.5
4559,COL,ALCOHOL,TOT,1998,6.6
4560,COL,ALCOHOL,TOT,1999,6.3
4561,COL,ALCOHOL,TOT,2000,4.5
4562,COL,ALCOHOL,TOT,2001,4.3
4563,COL,ALCOHOL,TOT,2002,4.3
4564,COL,ALCOHOL,TOT,2003,4.2
4565,COL,ALCOHOL,TOT,2004,4.2
4566,COL,ALCOHOL,TOT,2005,4.3
4567,COL,ALCOHOL,TOT,2006,4.4
4568,COL,ALCOHOL,TOT,2007,4.6
4569,COL,ALCOHOL,TOT,2008,4.4
4570,COL,ALCOHOL,TOT,2009,4.3
4571,COL,ALCOHOL,TOT,2010,4.2
4572,COL,ALCOHOL,TOT,2011,4.3
4573,COL,ALCOHOL,TOT,2012,4.4
4574,COL,ALCOHOL,TOT,2013,4.3
4575,COL,ALCOHOL,TOT,2014,4.3
4576,COL,ALCOHOL,TOT,2015,4.4
4577,COL,ALCOHOL,TOT,2016,4.5
4578,LVA,ALCOHOL,TOT,1980,13.0
4579,LVA,ALCOHOL,TOT,1981,12.8
4580,LVA,ALCOHOL,TOT,1982,12.4
4581,LVA,ALCOHOL,TOT,1983,12.3
4582,LVA,ALCOHOL,TOT,1984,12.4
4583,LVA,ALCOHOL,TOT,1985,10.9
4584,LVA,ALCOHOL,TOT,1986,7.8
4585,LVA,ALCOHOL,TOT,1987,5.8
4586,LVA,ALCOHOL,TOT,1988,6.3
4587,LVA,ALCOHOL,TOT,1989,7.5
4588,LVA,ALCOHOL,TOT,1990,6.7
4589,LVA,ALCOHOL,TOT,1991,6.7
4590,LVA,ALCOHOL,TOT,1992,6.9
4591,LVA,ALCOHOL,TOT,1993,8.0
4592,LVA,ALCOHOL,TOT,1994,9.6
4593,LVA,ALCOHOL,TOT,1995,9.1
4594,LVA,ALCOHOL,TOT,1996,8.4
4595,LVA,ALCOHOL,TOT,1997,8.4
4596,LVA,ALCOHOL,TOT,1998,8.9
4597,LVA,ALCOHOL,TOT,1999,8.8
4598,LVA,ALCOHOL,TOT,2000,7.1
4599,LVA,ALCOHOL,TOT,2001,6.7
4600,LVA,ALCOHOL,TOT,2002,7.4
4601,LVA,ALCOHOL,TOT,2003,8.2
4602,LVA,ALCOHOL,TOT,2004,8.8
4603,LVA,ALCOHOL,TOT,2005,9.9
4604,LVA,ALCOHOL,TOT,2006,10.4
4605,LVA,ALCOHOL,TOT,2007,12.1
4606,LVA,ALCOHOL,TOT,2008,11.8
4607,LVA,ALCOHOL,TOT,2009,9.9
4608,LVA,ALCOHOL,TOT,2010,9.8
4609,LVA,ALCOHOL,TOT,2011,10.1
4610,LVA,ALCOHOL,TOT,2012,10.2
4611,LVA,ALCOHOL,TOT,2013,10.4
4612,LVA,ALCOHOL,TOT,2014,10.6
4613,LVA,ALCOHOL,TOT,2015,10.8
4614,LVA,ALCOHOL,TOT,2016,11.2
4615,LTU,ALCOHOL,TOT,1995,7.9
4616,LTU,ALCOHOL,TOT,1996,7.9
4617,LTU,ALCOHOL,TOT,1997,8.7
4618,LTU,ALCOHOL,TOT,1998,8.0
4619,LTU,ALCOHOL,TOT,1999,8.6
4620,LTU,ALCOHOL,TOT,2000,9.7
4621,LTU,ALCOHOL,TOT,2001,10.5
4622,LTU,ALCOHOL,TOT,2002,11.1
4623,LTU,ALCOHOL,TOT,2003,11.3
4624,LTU,ALCOHOL,TOT,2004,12.2
4625,LTU,ALCOHOL,TOT,2005,12.5
4626,LTU,ALCOHOL,TOT,2006,13.2
4627,LTU,ALCOHOL,TOT,2007,13.9
4628,LTU,ALCOHOL,TOT,2008,13.9
4629,LTU,ALCOHOL,TOT,2009,13.1
4630,LTU,ALCOHOL,TOT,2010,13.5
4631,LTU,ALCOHOL,TOT,2011,14.7
4632,LTU,ALCOHOL,TOT,2012,14.7
4633,LTU,ALCOHOL,TOT,2013,14.5
4634,LTU,ALCOHOL,TOT,2014,14.2
4635,LTU,ALCOHOL,TOT,2015,14.0
4636,LTU,ALCOHOL,TOT,2016,13.2
4637,LTU,ALCOHOL,TOT,2017,12.3
4638,CRI,ALCOHOL,TOT,1961,3.2
4639,CRI,ALCOHOL,TOT,1962,2.9
4640,CRI,ALCOHOL,TOT,1963,3.8
4641,CRI,ALCOHOL,TOT,1964,3.7
4642,CRI,ALCOHOL,TOT,1965,4.1
4643,CRI,ALCOHOL,TOT,1966,4.6
4644,CRI,ALCOHOL,TOT,1967,3.4
4645,CRI,ALCOHOL,TOT,1968,3.5
4646,CRI,ALCOHOL,TOT,1969,3.7
4647,CRI,ALCOHOL,TOT,1970,3.7
4648,CRI,ALCOHOL,TOT,1971,3.6
4649,CRI,ALCOHOL,TOT,1972,3.8
4650,CRI,ALCOHOL,TOT,1973,3.9
4651,CRI,ALCOHOL,TOT,1974,3.7
4652,CRI,ALCOHOL,TOT,1975,3.5
4653,CRI,ALCOHOL,TOT,1976,4.0
4654,CRI,ALCOHOL,TOT,1977,4.5
4655,CRI,ALCOHOL,TOT,1978,5.2
4656,CRI,ALCOHOL,TOT,1979,5.0
4657,CRI,ALCOHOL,TOT,1980,4.6
4658,CRI,ALCOHOL,TOT,1981,4.6
4659,CRI,ALCOHOL,TOT,1982,4.7
4660,CRI,ALCOHOL,TOT,1983,4.5
4661,CRI,ALCOHOL,TOT,1984,4.9
4662,CRI,ALCOHOL,TOT,1985,5.0
4663,CRI,ALCOHOL,TOT,1986,4.9
4664,CRI,ALCOHOL,TOT,1987,4.2
4665,CRI,ALCOHOL,TOT,1988,5.5
4666,CRI,ALCOHOL,TOT,1989,5.4
4667,CRI,ALCOHOL,TOT,1990,6.1
4668,CRI,ALCOHOL,TOT,1991,6.1
4669,CRI,ALCOHOL,TOT,1992,5.6
4670,CRI,ALCOHOL,TOT,1993,5.6
4671,CRI,ALCOHOL,TOT,1994,6.1
4672,CRI,ALCOHOL,TOT,1995,5.9
4673,CRI,ALCOHOL,TOT,1996,5.6
4674,CRI,ALCOHOL,TOT,1997,5.6
4675,CRI,ALCOHOL,TOT,1998,5.6
4676,CRI,ALCOHOL,TOT,1999,5.4
4677,CRI,ALCOHOL,TOT,2000,4.3
4678,CRI,ALCOHOL,TOT,2001,4.3
4679,CRI,ALCOHOL,TOT,2002,4.2
4680,CRI,ALCOHOL,TOT,2003,4.1
4681,CRI,ALCOHOL,TOT,2004,4.1
4682,CRI,ALCOHOL,TOT,2005,4.1
4683,CRI,ALCOHOL,TOT,2006,4.2
4684,CRI,ALCOHOL,TOT,2007,4.3
4685,CRI,ALCOHOL,TOT,2008,4.3
4686,CRI,ALCOHOL,TOT,2009,4.2
4687,CRI,ALCOHOL,TOT,2010,3.7
4688,CRI,ALCOHOL,TOT,2011,3.5
4689,CRI,ALCOHOL,TOT,2012,3.4
4690,CRI,ALCOHOL,TOT,2013,3.5
4691,CRI,ALCOHOL,TOT,2014,3.6
4692,CRI,ALCOHOL,TOT,2015,3.6
4693,CRI,ALCOHOL,TOT,2016,3.7
4694,CRI,ALCOHOL,TOT,2017,3.3
4695,CRI,ALCOHOL,TOT,2018,3.8
